%YAML 1.1
%TAG !u! tag:unity3d.com,2011:
--- !u!1 &1719361380748080036
GameObject:
  m_ObjectHideFlags: 0
  m_CorrespondingSourceObject: {fileID: 0}
  m_PrefabInstance: {fileID: 0}
  m_PrefabAsset: {fileID: 0}
  serializedVersion: 6
  m_Component:
  - component: {fileID: 3102363466439952306}
  m_Layer: 9
  m_Name: 32018
  m_TagString: Enemy
  m_Icon: {fileID: 0}
  m_NavMeshLayer: 0
  m_StaticEditorFlags: 0
  m_IsActive: 1
--- !u!4 &3102363466439952306
Transform:
  m_ObjectHideFlags: 0
  m_CorrespondingSourceObject: {fileID: 0}
  m_PrefabInstance: {fileID: 0}
  m_PrefabAsset: {fileID: 0}
  m_GameObject: {fileID: 1719361380748080036}
  m_LocalRotation: {x: 0, y: 0, z: 0, w: 1}
  m_LocalPosition: {x: 0, y: 0, z: 0}
  m_LocalScale: {x: 0.65, y: 0.65, z: 1}
  m_Children:
  - {fileID: 2910286276283932350}
  m_Father: {fileID: 0}
  m_RootOrder: 0
  m_LocalEulerAnglesHint: {x: 0, y: 0, z: 10}
--- !u!1001 &247318443208251660
PrefabInstance:
  m_ObjectHideFlags: 0
  serializedVersion: 2
  m_Modification:
    m_TransformParent: {fileID: 3102363466439952306}
    m_Modifications:
    - target: {fileID: 1611606226148760953, guid: bf1a8bb28d6311147b561e4d2dfe7343,
        type: 3}
      propertyPath: m_LocalScale.x
      value: 0.6
      objectReference: {fileID: 0}
    - target: {fileID: 1611606226148760953, guid: bf1a8bb28d6311147b561e4d2dfe7343,
        type: 3}
      propertyPath: m_LocalScale.y
      value: 0.6
      objectReference: {fileID: 0}
    - target: {fileID: 1611606226148760953, guid: bf1a8bb28d6311147b561e4d2dfe7343,
        type: 3}
      propertyPath: m_LocalPosition.x
      value: 0.33
      objectReference: {fileID: 0}
    - target: {fileID: 1611606226148760953, guid: bf1a8bb28d6311147b561e4d2dfe7343,
        type: 3}
      propertyPath: m_LocalPosition.y
      value: -0.2
      objectReference: {fileID: 0}
    - target: {fileID: 1719361380748080036, guid: bf1a8bb28d6311147b561e4d2dfe7343,
        type: 3}
      propertyPath: m_Name
      value: Monster
      objectReference: {fileID: 0}
    - target: {fileID: 1865770931236587656, guid: bf1a8bb28d6311147b561e4d2dfe7343,
        type: 3}
      propertyPath: m_LocalScale.x
      value: 0.52
      objectReference: {fileID: 0}
    - target: {fileID: 1865770931236587656, guid: bf1a8bb28d6311147b561e4d2dfe7343,
        type: 3}
      propertyPath: m_LocalScale.y
      value: 0.52
      objectReference: {fileID: 0}
    - target: {fileID: 3102363466439952306, guid: bf1a8bb28d6311147b561e4d2dfe7343,
        type: 3}
      propertyPath: m_RootOrder
      value: 0
      objectReference: {fileID: 0}
    - target: {fileID: 3102363466439952306, guid: bf1a8bb28d6311147b561e4d2dfe7343,
        type: 3}
      propertyPath: m_LocalPosition.x
      value: 0
      objectReference: {fileID: 0}
    - target: {fileID: 3102363466439952306, guid: bf1a8bb28d6311147b561e4d2dfe7343,
        type: 3}
      propertyPath: m_LocalPosition.y
      value: 0
      objectReference: {fileID: 0}
    - target: {fileID: 3102363466439952306, guid: bf1a8bb28d6311147b561e4d2dfe7343,
        type: 3}
      propertyPath: m_LocalPosition.z
      value: 0
      objectReference: {fileID: 0}
    - target: {fileID: 3102363466439952306, guid: bf1a8bb28d6311147b561e4d2dfe7343,
        type: 3}
      propertyPath: m_LocalRotation.w
      value: 1
      objectReference: {fileID: 0}
    - target: {fileID: 3102363466439952306, guid: bf1a8bb28d6311147b561e4d2dfe7343,
        type: 3}
      propertyPath: m_LocalRotation.x
      value: 0
      objectReference: {fileID: 0}
    - target: {fileID: 3102363466439952306, guid: bf1a8bb28d6311147b561e4d2dfe7343,
        type: 3}
      propertyPath: m_LocalRotation.y
      value: 0
      objectReference: {fileID: 0}
    - target: {fileID: 3102363466439952306, guid: bf1a8bb28d6311147b561e4d2dfe7343,
        type: 3}
      propertyPath: m_LocalRotation.z
      value: 0
      objectReference: {fileID: 0}
    - target: {fileID: 3102363466439952306, guid: bf1a8bb28d6311147b561e4d2dfe7343,
        type: 3}
      propertyPath: m_LocalEulerAnglesHint.x
      value: 0
      objectReference: {fileID: 0}
    - target: {fileID: 3102363466439952306, guid: bf1a8bb28d6311147b561e4d2dfe7343,
        type: 3}
      propertyPath: m_LocalEulerAnglesHint.y
      value: 0
      objectReference: {fileID: 0}
    - target: {fileID: 3102363466439952306, guid: bf1a8bb28d6311147b561e4d2dfe7343,
        type: 3}
      propertyPath: m_LocalEulerAnglesHint.z
      value: 10
      objectReference: {fileID: 0}
    - target: {fileID: 4442788823557582193, guid: bf1a8bb28d6311147b561e4d2dfe7343,
        type: 3}
      propertyPath: m_LocalPosition.y
      value: 0.8
      objectReference: {fileID: 0}
    - target: {fileID: 5066350280922183282, guid: bf1a8bb28d6311147b561e4d2dfe7343,
        type: 3}
      propertyPath: m_IsActive
      value: 1
      objectReference: {fileID: 0}
    - target: {fileID: 5595285751559208620, guid: bf1a8bb28d6311147b561e4d2dfe7343,
        type: 3}
      propertyPath: m_LocalPosition.y
      value: 0.17
      objectReference: {fileID: 0}
    - target: {fileID: 6395392795993457336, guid: bf1a8bb28d6311147b561e4d2dfe7343,
        type: 3}
      propertyPath: m_Sprite
      value: 
      objectReference: {fileID: 21300000, guid: adf1537271cece24dbb821a9704d4338,
        type: 3}
    - target: {fileID: 9180694474152160519, guid: bf1a8bb28d6311147b561e4d2dfe7343,
        type: 3}
      propertyPath: m_LocalPosition.x
      value: 0.38
      objectReference: {fileID: 0}
    - target: {fileID: 9180694474152160519, guid: bf1a8bb28d6311147b561e4d2dfe7343,
        type: 3}
      propertyPath: m_LocalPosition.y
      value: 0.3
      objectReference: {fileID: 0}
    m_RemovedComponents: []
  m_SourcePrefab: {fileID: 100100000, guid: bf1a8bb28d6311147b561e4d2dfe7343, type: 3}
--- !u!4 &2910286276283932350 stripped
Transform:
  m_CorrespondingSourceObject: {fileID: 3102363466439952306, guid: bf1a8bb28d6311147b561e4d2dfe7343,
    type: 3}
  m_PrefabInstance: {fileID: 247318443208251660}
  m_PrefabAsset: {fileID: 0}
