%YAML 1.1
%TAG !u! tag:unity3d.com,2011:
--- !u!1 &1719361380748080036
GameObject:
  m_ObjectHideFlags: 0
  m_CorrespondingSourceObject: {fileID: 0}
  m_PrefabInstance: {fileID: 0}
  m_PrefabAsset: {fileID: 0}
  serializedVersion: 6
  m_Component:
  - component: {fileID: 3102363466439952306}
  m_Layer: 9
  m_Name: 32103
  m_TagString: Enemy
  m_Icon: {fileID: 0}
  m_NavMeshLayer: 0
  m_StaticEditorFlags: 0
  m_IsActive: 1
--- !u!4 &3102363466439952306
Transform:
  m_ObjectHideFlags: 0
  m_CorrespondingSourceObject: {fileID: 0}
  m_PrefabInstance: {fileID: 0}
  m_PrefabAsset: {fileID: 0}
  m_GameObject: {fileID: 1719361380748080036}
  m_LocalRotation: {x: 0, y: 0, z: 0, w: 1}
  m_LocalPosition: {x: 0, y: 0, z: 0}
  m_LocalScale: {x: 1, y: 1, z: 1}
  m_Children:
  - {fileID: 2316504988125626761}
  m_Father: {fileID: 0}
  m_RootOrder: 0
  m_LocalEulerAnglesHint: {x: 0, y: 0, z: 10}
--- !u!1001 &1274938689567574239
PrefabInstance:
  m_ObjectHideFlags: 0
  serializedVersion: 2
  m_Modification:
    m_TransformParent: {fileID: 3102363466439952306}
    m_Modifications:
    - target: {fileID: 3572652997130701141, guid: 7359cc5efc4177e408cdecee5e612e50,
        type: 3}
      propertyPath: m_Name
      value: Portal
      objectReference: {fileID: 0}
    - target: {fileID: 3572652997130701142, guid: 7359cc5efc4177e408cdecee5e612e50,
        type: 3}
      propertyPath: m_RootOrder
      value: 0
      objectReference: {fileID: 0}
    - target: {fileID: 3572652997130701142, guid: 7359cc5efc4177e408cdecee5e612e50,
        type: 3}
      propertyPath: m_LocalPosition.x
      value: 0
      objectReference: {fileID: 0}
    - target: {fileID: 3572652997130701142, guid: 7359cc5efc4177e408cdecee5e612e50,
        type: 3}
      propertyPath: m_LocalPosition.y
      value: 0
      objectReference: {fileID: 0}
    - target: {fileID: 3572652997130701142, guid: 7359cc5efc4177e408cdecee5e612e50,
        type: 3}
      propertyPath: m_LocalPosition.z
      value: 0
      objectReference: {fileID: 0}
    - target: {fileID: 3572652997130701142, guid: 7359cc5efc4177e408cdecee5e612e50,
        type: 3}
      propertyPath: m_LocalRotation.w
      value: 1
      objectReference: {fileID: 0}
    - target: {fileID: 3572652997130701142, guid: 7359cc5efc4177e408cdecee5e612e50,
        type: 3}
      propertyPath: m_LocalRotation.x
      value: -0
      objectReference: {fileID: 0}
    - target: {fileID: 3572652997130701142, guid: 7359cc5efc4177e408cdecee5e612e50,
        type: 3}
      propertyPath: m_LocalRotation.y
      value: -0
      objectReference: {fileID: 0}
    - target: {fileID: 3572652997130701142, guid: 7359cc5efc4177e408cdecee5e612e50,
        type: 3}
      propertyPath: m_LocalRotation.z
      value: -0
      objectReference: {fileID: 0}
    - target: {fileID: 3572652997130701142, guid: 7359cc5efc4177e408cdecee5e612e50,
        type: 3}
      propertyPath: m_LocalEulerAnglesHint.x
      value: 0
      objectReference: {fileID: 0}
    - target: {fileID: 3572652997130701142, guid: 7359cc5efc4177e408cdecee5e612e50,
        type: 3}
      propertyPath: m_LocalEulerAnglesHint.y
      value: 0
      objectReference: {fileID: 0}
    - target: {fileID: 3572652997130701142, guid: 7359cc5efc4177e408cdecee5e612e50,
        type: 3}
      propertyPath: m_LocalEulerAnglesHint.z
      value: 10
      objectReference: {fileID: 0}
    - target: {fileID: 4100463693493714672, guid: 7359cc5efc4177e408cdecee5e612e50,
        type: 3}
      propertyPath: m_LocalPosition.y
      value: -1.9
      objectReference: {fileID: 0}
    - target: {fileID: 7752448028927971329, guid: 7359cc5efc4177e408cdecee5e612e50,
        type: 3}
      propertyPath: m_Sprite
      value: 
      objectReference: {fileID: 21300000, guid: 33ebc0de68c8f9c42b85f0bd85589430,
        type: 3}
    m_RemovedComponents: []
  m_SourcePrefab: {fileID: 100100000, guid: 7359cc5efc4177e408cdecee5e612e50, type: 3}
--- !u!4 &2316504988125626761 stripped
Transform:
  m_CorrespondingSourceObject: {fileID: 3572652997130701142, guid: 7359cc5efc4177e408cdecee5e612e50,
    type: 3}
  m_PrefabInstance: {fileID: 1274938689567574239}
  m_PrefabAsset: {fileID: 0}
