%YAML 1.1
%TAG !u! tag:unity3d.com,2011:
--- !u!114 &11400000
MonoBehaviour:
  m_ObjectHideFlags: 0
  m_CorrespondingSourceObject: {fileID: 0}
  m_PrefabInstance: {fileID: 0}
  m_PrefabAsset: {fileID: 0}
  m_GameObject: {fileID: 0}
  m_Enabled: 1
  m_EditorHideFlags: 0
  m_Script: {fileID: 11500000, guid: 9aa6100d5219ab549810cea623d2c4c5, type: 3}
  m_Name: UniversalDevicePreviewConfig
  m_EditorClassIdentifier: 
  m_Config:
    m_DestinationFolder: 3
    m_RelativePath: Screenshots/Universal
    m_RootedPath: 
    m_ExportToPhoneGallery: 1
    m_FileName: '{name}'
    m_OverwriteFiles: 0
    m_FileFormat: 0
    m_JPGQuality: 75
    m_ShareTitle: Share the screenshot
    m_ShareSubject: Nice screenshot
    m_ShareText: Look at this nice screenshot.
    m_CaptureMode: 0
    m_MultisamplingAntiAliasing: 8
    m_ColorFormat: 0
    m_RecomputeAlphaLayer: 0
    m_ShotMode: 0
    m_MaxBurstShotsNumber: 20
    m_ShotPerSeconds: 30
    m_CameraMode: 0
    m_ExportToDifferentLayers: 0
    m_Cameras:
    - m_Active: 1
      m_Camera: {fileID: 0}
      m_ClearSettings: 1
      m_ClearFlags: 2
      m_BackgroundColor: {r: 0.24137926, g: 0, b: 1, a: 1}
      m_CullingSettings: 0
      m_CullingMask: -1
      m_FOVSettings: 0
      m_FOV: 70
    m_ResolutionCaptureMode: 1
    m_Resolutions:
    - m_Active: 1
      m_Width: 1920
      m_Height: 1080
      m_Scale: 1
      m_Orientation: 0
      m_ResolutionName: Apple iPhone 8 Plus
      m_Category: Devices/Apple/iPhone
      m_Platform: iOS
      m_PPI: 401
      m_ForcedUnityPPI: 0
      m_DeviceCanvas: {fileID: 22326366, guid: aaea7d8408fb8f5408826377de04583f, type: 3}
      m_Ratio: 16:9
      m_FileName: 
      m_IgnoreOrientation: 0
      m_SafeAreaPortrait:
        serializedVersion: 2
        x: 0
        y: 0
        width: 0
        height: 0
      m_SafeAreaLandscapeLeft:
        serializedVersion: 2
        x: 0
        y: 0
        width: 0
        height: 0
    - m_Active: 1
      m_Width: 2532
      m_Height: 1170
      m_Scale: 1
      m_Orientation: 0
      m_ResolutionName: Apple iPhone 12
      m_Category: Devices/Apple/iPhone
      m_Platform: iOS
      m_PPI: 457
      m_ForcedUnityPPI: 0
      m_DeviceCanvas: {fileID: 22333258, guid: 6c29deb4f6d80514899d6ab08938d695, type: 3}
      m_Ratio: 2:1~
      m_FileName: 
      m_IgnoreOrientation: 0
      m_SafeAreaPortrait:
        serializedVersion: 2
        x: 0
        y: 102
        width: 1170
        height: 2289
      m_SafeAreaLandscapeLeft:
        serializedVersion: 2
        x: 141
        y: 63
        width: 2250
        height: 1107
    - m_Active: 1
      m_Width: 1334
      m_Height: 750
      m_Scale: 1
      m_Orientation: 0
      m_ResolutionName: Apple iPhone SE (2020)
      m_Category: Devices/Apple/iPhone
      m_Platform: iOS
      m_PPI: 326
      m_ForcedUnityPPI: 0
      m_DeviceCanvas: {fileID: 22395588, guid: aa3d8ba952f3599488b0b50331dd42d0, type: 3}
      m_Ratio: 16:9~
      m_FileName: 
      m_IgnoreOrientation: 0
      m_SafeAreaPortrait:
        serializedVersion: 2
        x: 0
        y: 0
        width: 0
        height: 0
      m_SafeAreaLandscapeLeft:
        serializedVersion: 2
        x: 0
        y: 0
        width: 0
        height: 0
    - m_Active: 1
      m_Width: 2436
      m_Height: 1125
      m_Scale: 1
      m_Orientation: 0
      m_ResolutionName: Apple iPhone X
      m_Category: Devices/Apple/iPhone
      m_Platform: iOS
      m_PPI: 459
      m_ForcedUnityPPI: 0
      m_DeviceCanvas: {fileID: 22333258, guid: 6c29deb4f6d80514899d6ab08938d695, type: 3}
      m_Ratio: 2:1~
      m_FileName: 
      m_IgnoreOrientation: 0
      m_SafeAreaPortrait:
        serializedVersion: 2
        x: 0
        y: 102
        width: 1125
        height: 2202
      m_SafeAreaLandscapeLeft:
        serializedVersion: 2
        x: 132
        y: 63
        width: 2172
        height: 1062
    - m_Active: 1
      m_Width: 2960
      m_Height: 1440
      m_Scale: 1
      m_Orientation: 0
      m_ResolutionName: Google Pixel 3 XL
      m_Category: Devices/Google
      m_Platform: Android
      m_PPI: 522
      m_ForcedUnityPPI: 0
      m_DeviceCanvas: {fileID: 22392430, guid: d2fa1ee999b5d694ab23475359dd208e, type: 3}
      m_Ratio: 21:10~
      m_FileName: 
      m_IgnoreOrientation: 0
      m_SafeAreaPortrait:
        serializedVersion: 2
        x: 0
        y: 0
        width: 1440
        height: 2789
      m_SafeAreaLandscapeLeft:
        serializedVersion: 2
        x: 171
        y: 0
        width: 2789
        height: 1440
    - m_Active: 1
      m_Width: 2340
      m_Height: 1080
      m_Scale: 1
      m_Orientation: 0
      m_ResolutionName: Google Pixel 4a (4G)
      m_Category: Devices/Google
      m_Platform: Android
      m_PPI: 443
      m_ForcedUnityPPI: 0
      m_DeviceCanvas: {fileID: 22359418, guid: 71bd5fd00aafc4140b5b1ebbc2981c16, type: 3}
      m_Ratio: 2:1~
      m_FileName: 
      m_IgnoreOrientation: 0
      m_SafeAreaPortrait:
        serializedVersion: 2
        x: 0
        y: 0
        width: 1080
        height: 2204
      m_SafeAreaLandscapeLeft:
        serializedVersion: 2
        x: 136
        y: 0
        width: 2204
        height: 1080
    - m_Active: 1
      m_Width: 1280
      m_Height: 720
      m_Scale: 1
      m_Orientation: 0
      m_ResolutionName: Nintendo Switch
      m_Category: Devices/Nintendo
      m_Platform: Switch
      m_PPI: 236
      m_ForcedUnityPPI: 0
      m_DeviceCanvas: {fileID: 22359418, guid: 223a6fe877a01d64f95cb1c9b3e756c4, type: 3}
      m_Ratio: 16:9
      m_FileName: 
      m_IgnoreOrientation: 0
      m_SafeAreaPortrait:
        serializedVersion: 2
        x: 0
        y: 0
        width: 0
        height: 0
      m_SafeAreaLandscapeLeft:
        serializedVersion: 2
        x: 0
        y: 0
        width: 0
        height: 0
    - m_Active: 1
      m_Width: 2280
      m_Height: 1080
      m_Scale: 1
      m_Orientation: 0
      m_ResolutionName: OnePlus 6
      m_Category: Devices/OnePlus
      m_Platform: Android
      m_PPI: 402
      m_ForcedUnityPPI: 0
      m_DeviceCanvas: {fileID: 22359418, guid: 019921eb3e9274149b7b87d94771f333, type: 3}
      m_Ratio: 21:10~
      m_FileName: 
      m_IgnoreOrientation: 0
      m_SafeAreaPortrait:
        serializedVersion: 2
        x: 0
        y: 0
        width: 1080
        height: 2201
      m_SafeAreaLandscapeLeft:
        serializedVersion: 2
        x: 79
        y: 0
        width: 2201
        height: 1080
    - m_Active: 1
      m_Width: 3040
      m_Height: 1440
      m_Scale: 1
      m_Orientation: 0
      m_ResolutionName: Samsung Galaxy S10+
      m_Category: Devices/Samsung
      m_Platform: Android
      m_PPI: 522
      m_ForcedUnityPPI: 0
      m_DeviceCanvas: {fileID: 22359418, guid: 6f99485293f31b94598d93007b53c365, type: 3}
      m_Ratio: 21:10~
      m_FileName: 
      m_IgnoreOrientation: 0
      m_SafeAreaPortrait:
        serializedVersion: 2
        x: 0
        y: 0
        width: 1440
        height: 2898
      m_SafeAreaLandscapeLeft:
        serializedVersion: 2
        x: 142
        y: 0
        width: 2898
        height: 1440
    - m_Active: 1
      m_Width: 2340
      m_Height: 1080
      m_Scale: 1
      m_Orientation: 0
      m_ResolutionName: Xiaomi Redmi Note 8 Pro
      m_Category: Devices/Xiaomi
      m_Platform: Android
      m_PPI: 395
      m_ForcedUnityPPI: 0
      m_DeviceCanvas: {fileID: 223107751563639720, guid: 91505643abac8e14ca16db545691ba40,
        type: 3}
      m_Ratio: 2:1~
      m_FileName: 
      m_IgnoreOrientation: 0
      m_SafeAreaPortrait:
        serializedVersion: 2
        x: 0
        y: 0
        width: 1080
        height: 2264
      m_SafeAreaLandscapeLeft:
        serializedVersion: 2
        x: 76
        y: 0
        width: 2264
        height: 1080
    - m_Active: 1
      m_Width: 1024
      m_Height: 578
      m_Scale: 1
      m_Orientation: 0
      m_ResolutionName: 1920x1280
      m_Category: Ratio/3_2
      m_Platform: 
      m_PPI: 0
      m_ForcedUnityPPI: 0
      m_DeviceCanvas: {fileID: 0}
      m_Ratio: 16:9~
      m_FileName: 
      m_IgnoreOrientation: 0
      m_SafeAreaPortrait:
        serializedVersion: 2
        x: 0
        y: 0
        width: 0
        height: 0
      m_SafeAreaLandscapeLeft:
        serializedVersion: 2
        x: 0
        y: 0
        width: 0
        height: 0
    - m_Active: 1
      m_Width: 2048
      m_Height: 1536
      m_Scale: 1
      m_Orientation: 2
      m_ResolutionName: Apple iPad Mini 4
      m_Category: Devices/Apple/iPad
      m_Platform: iOS
      m_PPI: 324
      m_ForcedUnityPPI: 0
      m_DeviceCanvas: {fileID: 22375798, guid: a1c0ba3ad48fdc042b7cc7ce0d217be7, type: 3}
      m_Ratio: 4:3
      m_FileName: 
      m_IgnoreOrientation: 0
      m_SafeAreaPortrait:
        serializedVersion: 2
        x: 0
        y: 0
        width: 0
        height: 0
      m_SafeAreaLandscapeLeft:
        serializedVersion: 2
        x: 0
        y: 0
        width: 0
        height: 0
    - m_Active: 1
      m_Width: 2732
      m_Height: 2048
      m_Scale: 1
      m_Orientation: 2
      m_ResolutionName: Apple iPad Pro
      m_Category: Devices/Apple/iPad
      m_Platform: iOS
      m_PPI: 265
      m_ForcedUnityPPI: 0
      m_DeviceCanvas: {fileID: 0}
      m_Ratio: 12:9~
      m_FileName: 
      m_IgnoreOrientation: 0
      m_SafeAreaPortrait:
        serializedVersion: 2
        x: 0
        y: 0
        width: 0
        height: 0
      m_SafeAreaLandscapeLeft:
        serializedVersion: 2
        x: 0
        y: 0
        width: 0
        height: 0
    m_GameViewResolution:
      m_Active: 1
      m_Width: 983
      m_Height: 701
      m_Scale: 1
      m_Orientation: 0
      m_ResolutionName: GameView
      m_Category: Custom
      m_Platform: Standalone
      m_PPI: 0
      m_ForcedUnityPPI: 0
      m_DeviceCanvas: {fileID: 0}
      m_Ratio: 4:3
      m_FileName: C:\Users\iron\Pictures/Screenshots/983x701-1 GameView LANDSCAPE.png
      m_IgnoreOrientation: 0
      m_SafeAreaPortrait:
        serializedVersion: 2
        x: 0
        y: 0
        width: 0
        height: 0
      m_SafeAreaLandscapeLeft:
        serializedVersion: 2
        x: 0
        y: 0
        width: 0
        height: 0
    m_CaptureActiveUICanvas: 1
    m_ForceUICullingLayer: 0
    m_Overlays:
    - m_Canvas: {fileID: 0}
      m_Active: 0
    m_CompositionMode: 0
    m_Compositions: []
    m_BatchMode: 0
    m_Batches: []
    m_ShowGuidesInPreview: 0
    m_GuideCanvas: {fileID: 0}
    m_GuidesColor: {r: 1, g: 1, b: 1, a: 1}
    m_ShowPreview: 1
    m_PreviewSize: 1
    m_PreviewInGameViewWhilePlaying: 0
    m_DontDestroyOnLoad: 1
    m_StopTimeOnCapture: 0
    m_PlaySoundOnCapture: 0
    m_ShotSound: {fileID: 0}
    m_CaptureHotkey:
      m_Shift: 0
      m_Control: 0
      m_Alt: 0
      m_Key: 0
    m_UpdatePreviewHotkey:
      m_Shift: 0
      m_Control: 0
      m_Alt: 0
      m_Key: 0
    m_AlignHotkey:
      m_Shift: 0
      m_Control: 0
      m_Alt: 0
      m_Key: 0
    m_PauseHotkey:
      m_Shift: 0
      m_Control: 0
      m_Alt: 0
      m_Key: 0
    m_GameViewResizingWaitingMode: 0
    m_ResizingWaitingTime: 2
    m_ResizingWaitingFrames: 4
    m_ItemsPerPage: 25
    m_ShowDestination: 0
    m_ShowName: 0
    m_ShowCaptureMode: 1
    m_ShowResolutions: 1
    m_ShowCameras: 1
    m_ShowCanvas: 1
    m_ShowComposition: 1
    m_ShowBatches: 1
    m_ShowPreviewGUI: 1
    m_ShowCapture: 1
    m_ShowHotkeys: 1
    m_ShowGallery: 1
    m_ShowUtils: 0
    m_ShowUsage: 0
    m_ShowInstall: 0
    m_ShowDelay: 0
  m_ScreenPPI: 130
  m_ZoomScrollSpeed: 0.01
  m_MarginHorizontal: 10
  m_MarginVertical: 30
  m_GalleryPaddingVertical: 10
  m_GalleryTextHeight: 30
  m_GalleryBorderSize: 2
  m_Selected: 7
  m_PreviewGalleryZoom: 0.75
  m_PreviewZoom: 1
  m_RefreshMode: 0
  m_AutoRefresh: 0
  m_RefreshDelay: 2
  m_GalleryDisplayMode: 2
  m_PreviewDisplayMode: 2
  m_DrawingMode: 0
  m_DeviceRendererCamera: {fileID: 2009090, guid: 277a80b5609ce0441a8f4b6e014524f1,
    type: 3}
  m_DefaultDeviceCanvas: {fileID: 22333258, guid: 1c3e759c6432d0d45bbb466445ec03c5,
    type: 3}
  m_TransparentDeviceBackground: 0
  m_DrawSafeArea: 1
  m_SafeAreaCanvas: {fileID: 223366713027128130, guid: de52309f8dae51e4babb47a313c72eef,
    type: 3}
  m_ShowGallery: 1
  m_ExpandDevices: 1
  m_ShowResolution: 1
  m_ShowPPI: 1
  m_ShowRatio: 1
  m_AutoGenerateEmptyPreview: 1
  m_BackupPreviewToDisk: 1
