{
    "name": "gpm_ui_editor",
    "references": [
        "gpm_ui"
    ],
    "optionalUnityReferences": [],
    "includePlatforms": [
        "Editor"
    ],
    "excludePlatforms": [],
    "allowUnsafeCode": false,
    "overrideReferences": false,
    "precompiledReferences": [],
    "autoReferenced": false,
    "defineConstraints": []
}