%YAML 1.1
%TAG !u! tag:unity3d.com,2011:
--- !u!1001 &11590010283288241
PrefabInstance:
  m_ObjectHideFlags: 0
  serializedVersion: 2
  m_Modification:
    m_TransformParent: {fileID: 0}
    m_Modifications:
    - target: {fileID: 909707247390723163, guid: ec7d7f9eea21be341873233c987757b1,
        type: 3}
      propertyPath: m_Sprite
      value: 
      objectReference: {fileID: 21300000, guid: 92fa95a062abcfd43abe29bd45bae2a0,
        type: 3}
    - target: {fileID: 929982811084117620, guid: ec7d7f9eea21be341873233c987757b1,
        type: 3}
      propertyPath: m_Pivot.x
      value: 0.5
      objectReference: {fileID: 0}
    - target: {fileID: 929982811084117620, guid: ec7d7f9eea21be341873233c987757b1,
        type: 3}
      propertyPath: m_Pivot.y
      value: 0.5
      objectReference: {fileID: 0}
    - target: {fileID: 929982811084117620, guid: ec7d7f9eea21be341873233c987757b1,
        type: 3}
      propertyPath: m_RootOrder
      value: 0
      objectReference: {fileID: 0}
    - target: {fileID: 929982811084117620, guid: ec7d7f9eea21be341873233c987757b1,
        type: 3}
      propertyPath: m_AnchorMax.x
      value: 0
      objectReference: {fileID: 0}
    - target: {fileID: 929982811084117620, guid: ec7d7f9eea21be341873233c987757b1,
        type: 3}
      propertyPath: m_AnchorMax.y
      value: 0
      objectReference: {fileID: 0}
    - target: {fileID: 929982811084117620, guid: ec7d7f9eea21be341873233c987757b1,
        type: 3}
      propertyPath: m_AnchorMin.x
      value: 0
      objectReference: {fileID: 0}
    - target: {fileID: 929982811084117620, guid: ec7d7f9eea21be341873233c987757b1,
        type: 3}
      propertyPath: m_AnchorMin.y
      value: 0
      objectReference: {fileID: 0}
    - target: {fileID: 929982811084117620, guid: ec7d7f9eea21be341873233c987757b1,
        type: 3}
      propertyPath: m_SizeDelta.x
      value: 238.45776
      objectReference: {fileID: 0}
    - target: {fileID: 929982811084117620, guid: ec7d7f9eea21be341873233c987757b1,
        type: 3}
      propertyPath: m_SizeDelta.y
      value: 100
      objectReference: {fileID: 0}
    - target: {fileID: 929982811084117620, guid: ec7d7f9eea21be341873233c987757b1,
        type: 3}
      propertyPath: m_LocalScale.z
      value: 0
      objectReference: {fileID: 0}
    - target: {fileID: 929982811084117620, guid: ec7d7f9eea21be341873233c987757b1,
        type: 3}
      propertyPath: m_LocalPosition.x
      value: 0
      objectReference: {fileID: 0}
    - target: {fileID: 929982811084117620, guid: ec7d7f9eea21be341873233c987757b1,
        type: 3}
      propertyPath: m_LocalPosition.y
      value: 0
      objectReference: {fileID: 0}
    - target: {fileID: 929982811084117620, guid: ec7d7f9eea21be341873233c987757b1,
        type: 3}
      propertyPath: m_LocalPosition.z
      value: 0
      objectReference: {fileID: 0}
    - target: {fileID: 929982811084117620, guid: ec7d7f9eea21be341873233c987757b1,
        type: 3}
      propertyPath: m_LocalRotation.w
      value: 1
      objectReference: {fileID: 0}
    - target: {fileID: 929982811084117620, guid: ec7d7f9eea21be341873233c987757b1,
        type: 3}
      propertyPath: m_LocalRotation.x
      value: -0
      objectReference: {fileID: 0}
    - target: {fileID: 929982811084117620, guid: ec7d7f9eea21be341873233c987757b1,
        type: 3}
      propertyPath: m_LocalRotation.y
      value: -0
      objectReference: {fileID: 0}
    - target: {fileID: 929982811084117620, guid: ec7d7f9eea21be341873233c987757b1,
        type: 3}
      propertyPath: m_LocalRotation.z
      value: -0
      objectReference: {fileID: 0}
    - target: {fileID: 929982811084117620, guid: ec7d7f9eea21be341873233c987757b1,
        type: 3}
      propertyPath: m_AnchoredPosition.x
      value: 0
      objectReference: {fileID: 0}
    - target: {fileID: 929982811084117620, guid: ec7d7f9eea21be341873233c987757b1,
        type: 3}
      propertyPath: m_AnchoredPosition.y
      value: 0
      objectReference: {fileID: 0}
    - target: {fileID: 929982811084117620, guid: ec7d7f9eea21be341873233c987757b1,
        type: 3}
      propertyPath: m_LocalEulerAnglesHint.x
      value: 0
      objectReference: {fileID: 0}
    - target: {fileID: 929982811084117620, guid: ec7d7f9eea21be341873233c987757b1,
        type: 3}
      propertyPath: m_LocalEulerAnglesHint.y
      value: 0
      objectReference: {fileID: 0}
    - target: {fileID: 929982811084117620, guid: ec7d7f9eea21be341873233c987757b1,
        type: 3}
      propertyPath: m_LocalEulerAnglesHint.z
      value: 0
      objectReference: {fileID: 0}
    - target: {fileID: 7655589632631939911, guid: ec7d7f9eea21be341873233c987757b1,
        type: 3}
      propertyPath: m_Name
      value: Missile Slot (Ancient)
      objectReference: {fileID: 0}
    m_RemovedComponents: []
  m_SourcePrefab: {fileID: 100100000, guid: ec7d7f9eea21be341873233c987757b1, type: 3}
