%YAML 1.1
%TAG !u! tag:unity3d.com,2011:
--- !u!114 &11400000
MonoBehaviour:
  m_ObjectHideFlags: 0
  m_CorrespondingSourceObject: {fileID: 0}
  m_PrefabInstance: {fileID: 0}
  m_PrefabAsset: {fileID: 0}
  m_GameObject: {fileID: 0}
  m_Enabled: 1
  m_EditorHideFlags: 0
  m_Script: {fileID: 11500000, guid: e3fc1e56f11d7a24f9aa059d599df6c9, type: 3}
  m_Name: Plunder
  m_EditorClassIdentifier: 
  databoxCloudService: {fileID: 0}
  cloudVersion: 
  oldCloudVersion: 
  cloudId: 0
  cloudServer: 
  cloudStatus: 
  cloudProgress: 0
  savePath: C:/Projects/missile/Assets/StreamingAssets\Plunder
  fileName: Plunder
  selectedApplicationPath: 1
  debugMode: 0
  showFieldTypes: 0
  showInitValues: 0
  automaticSave: 0
  automaticLoad: 1
  databoxScheme: {fileID: 0}
  encryption: 1
  encryptionKey: 34816
  compressJson: 0
  dataFormat: 0
  collapsedView: 1
  showInspector: 0
  entriesPerPage: 99
  googleSheetUrl: https://docs.google.com/spreadsheets/d/1h6nTZjjnyzfMshAVaGUOB-EDG0GUTO4ycMV2nseACv4/edit?usp=sharing
  googleWorksheets:
  - name: skill
    id: 1748559503
  - name: speed
    id: 1578982699
  - name: reward
    id: 0
  - name: matching
    id: 4153292
  - name: limited
    id: 1691867484
  serializer: 1
  errors: 0
  cloudWarnings: 0
  cloudCheck: 0
