%YAML 1.1
%TAG !u! tag:unity3d.com,2011:
--- !u!114 &11400000
MonoBehaviour:
  m_ObjectHideFlags: 0
  m_CorrespondingSourceObject: {fileID: 0}
  m_PrefabInstance: {fileID: 0}
  m_PrefabAsset: {fileID: 0}
  m_GameObject: {fileID: 0}
  m_Enabled: 1
  m_EditorHideFlags: 0
  m_Script: {fileID: 11500000, guid: e3fc1e56f11d7a24f9aa059d599df6c9, type: 3}
  m_Name: Relic
  m_EditorClassIdentifier: 
  databoxCloudService: {fileID: 0}
  cloudVersion: 
  oldCloudVersion: 
  cloudId: 
  cloudServer: 
  cloudStatus: 
  cloudProgress: 0
  savePath: C:/Projects/missile/Assets/StreamingAssets\Relic
  fileName: Relic
  selectedApplicationPath: 1
  debugMode: 0
  showFieldTypes: 0
  showInitValues: 0
  automaticSave: 0
  automaticLoad: 1
  databoxScheme: {fileID: 0}
  encryption: 1
  encryptionKey: 9542
  compressJson: 1
  dataFormat: 0
  collapsedView: 1
  showInspector: 0
  entriesPerPage: 99
  googleSheetUrl: https://docs.google.com/spreadsheets/d/1h5UeguXWnu7O-frwDqyNCzkyxHcR4ZjdZKEQbHQn_UQ/edit?usp=sharing
  googleWorksheets:
  - name: relic
    id: 0
  - name: d_relic
    id: 63227689
  - name: relic_cost
    id: 218369636
  - name: level
    id: 491711093
  - name: gain
    id: 1926023267
  serializer: 1
  errors: 0
  cloudWarnings: 0
  cloudCheck: 0
