%YAML 1.1
%TAG !u! tag:unity3d.com,2011:
--- !u!1001 &2075989969063387984
PrefabInstance:
  m_ObjectHideFlags: 0
  serializedVersion: 2
  m_Modification:
    m_TransformParent: {fileID: 0}
    m_Modifications:
    - target: {fileID: 694496419493507845, guid: 75b76e74203d1b44eb01c197070bcfd5,
        type: 3}
      propertyPath: m_Name
      value: Spill (ally) (1)
      objectReference: {fileID: 0}
    - target: {fileID: 4720567940479328114, guid: 75b76e74203d1b44eb01c197070bcfd5,
        type: 3}
      propertyPath: m_RootOrder
      value: 0
      objectReference: {fileID: 0}
    - target: {fileID: 4720567940479328114, guid: 75b76e74203d1b44eb01c197070bcfd5,
        type: 3}
      propertyPath: m_LocalPosition.x
      value: 0
      objectReference: {fileID: 0}
    - target: {fileID: 4720567940479328114, guid: 75b76e74203d1b44eb01c197070bcfd5,
        type: 3}
      propertyPath: m_LocalPosition.y
      value: 0
      objectReference: {fileID: 0}
    - target: {fileID: 4720567940479328114, guid: 75b76e74203d1b44eb01c197070bcfd5,
        type: 3}
      propertyPath: m_LocalPosition.z
      value: 0
      objectReference: {fileID: 0}
    - target: {fileID: 4720567940479328114, guid: 75b76e74203d1b44eb01c197070bcfd5,
        type: 3}
      propertyPath: m_LocalRotation.w
      value: 1
      objectReference: {fileID: 0}
    - target: {fileID: 4720567940479328114, guid: 75b76e74203d1b44eb01c197070bcfd5,
        type: 3}
      propertyPath: m_LocalRotation.x
      value: 0
      objectReference: {fileID: 0}
    - target: {fileID: 4720567940479328114, guid: 75b76e74203d1b44eb01c197070bcfd5,
        type: 3}
      propertyPath: m_LocalRotation.y
      value: 0
      objectReference: {fileID: 0}
    - target: {fileID: 4720567940479328114, guid: 75b76e74203d1b44eb01c197070bcfd5,
        type: 3}
      propertyPath: m_LocalRotation.z
      value: 0
      objectReference: {fileID: 0}
    - target: {fileID: 4720567940479328114, guid: 75b76e74203d1b44eb01c197070bcfd5,
        type: 3}
      propertyPath: m_LocalEulerAnglesHint.x
      value: 0
      objectReference: {fileID: 0}
    - target: {fileID: 4720567940479328114, guid: 75b76e74203d1b44eb01c197070bcfd5,
        type: 3}
      propertyPath: m_LocalEulerAnglesHint.y
      value: 0
      objectReference: {fileID: 0}
    - target: {fileID: 4720567940479328114, guid: 75b76e74203d1b44eb01c197070bcfd5,
        type: 3}
      propertyPath: m_LocalEulerAnglesHint.z
      value: 0
      objectReference: {fileID: 0}
    - target: {fileID: 4880377612948643797, guid: 75b76e74203d1b44eb01c197070bcfd5,
        type: 3}
      propertyPath: m_Sprite
      value: 
      objectReference: {fileID: 21300000, guid: c9dc344c364ec2e4ba626d11553cc407,
        type: 3}
    m_RemovedComponents: []
  m_SourcePrefab: {fileID: 100100000, guid: 75b76e74203d1b44eb01c197070bcfd5, type: 3}
