%YAML 1.1
%TAG !u! tag:unity3d.com,2011:
--- !u!114 &11400000
MonoBehaviour:
  m_ObjectHideFlags: 0
  m_CorrespondingSourceObject: {fileID: 0}
  m_PrefabInstance: {fileID: 0}
  m_PrefabAsset: {fileID: 0}
  m_GameObject: {fileID: 0}
  m_Enabled: 1
  m_EditorHideFlags: 0
  m_Script: {fileID: 11500000, guid: e9620f8c34305754d8cc9a7e49e852d9, type: 3}
  m_Name: App Data_ko
  m_EditorClassIdentifier: 
  m_LocaleId:
    m_Code: ko
  m_SharedData: {fileID: 11400000, guid: 1badd0bc33eebe94384ac0ca976bb4b5, type: 2}
  m_Metadata:
    m_Items: []
  m_TableData:
  - m_Id: 17584832512
    m_Localized: "\uBBF8\uC0AC\uC77C RPG 2"
    m_Metadata:
      m_Items: []
  references:
    version: 1
