%YAML 1.1
%TAG !u! tag:unity3d.com,2011:
--- !u!1 &1719361380748080036
GameObject:
  m_ObjectHideFlags: 0
  m_CorrespondingSourceObject: {fileID: 0}
  m_PrefabInstance: {fileID: 0}
  m_PrefabAsset: {fileID: 0}
  serializedVersion: 6
  m_Component:
  - component: {fileID: 3102363466439952306}
  m_Layer: 9
  m_Name: Parts
  m_TagString: Enemy
  m_Icon: {fileID: 0}
  m_NavMeshLayer: 0
  m_StaticEditorFlags: 0
  m_IsActive: 1
--- !u!4 &3102363466439952306
Transform:
  m_ObjectHideFlags: 0
  m_CorrespondingSourceObject: {fileID: 0}
  m_PrefabInstance: {fileID: 0}
  m_PrefabAsset: {fileID: 0}
  m_GameObject: {fileID: 1719361380748080036}
  m_LocalRotation: {x: 0, y: 0, z: 0, w: 1}
  m_LocalPosition: {x: 0, y: 0, z: 0}
  m_LocalScale: {x: 1, y: 1, z: 1}
  m_Children:
  - {fileID: 8518299646756222945}
  m_Father: {fileID: 0}
  m_RootOrder: 0
  m_LocalEulerAnglesHint: {x: 0, y: 0, z: 10}
--- !u!1001 &4369545720253612859
PrefabInstance:
  m_ObjectHideFlags: 0
  serializedVersion: 2
  m_Modification:
    m_TransformParent: {fileID: 3102363466439952306}
    m_Modifications:
    - target: {fileID: 5374108044528907481, guid: 68846da80c909e940807b673d987786f,
        type: 3}
      propertyPath: m_Name
      value: HellWorm Parts
      objectReference: {fileID: 0}
    - target: {fileID: 5374108044528907482, guid: 68846da80c909e940807b673d987786f,
        type: 3}
      propertyPath: m_RootOrder
      value: 0
      objectReference: {fileID: 0}
    - target: {fileID: 5374108044528907482, guid: 68846da80c909e940807b673d987786f,
        type: 3}
      propertyPath: m_LocalPosition.x
      value: 0
      objectReference: {fileID: 0}
    - target: {fileID: 5374108044528907482, guid: 68846da80c909e940807b673d987786f,
        type: 3}
      propertyPath: m_LocalPosition.y
      value: 0
      objectReference: {fileID: 0}
    - target: {fileID: 5374108044528907482, guid: 68846da80c909e940807b673d987786f,
        type: 3}
      propertyPath: m_LocalPosition.z
      value: 0
      objectReference: {fileID: 0}
    - target: {fileID: 5374108044528907482, guid: 68846da80c909e940807b673d987786f,
        type: 3}
      propertyPath: m_LocalRotation.w
      value: 1
      objectReference: {fileID: 0}
    - target: {fileID: 5374108044528907482, guid: 68846da80c909e940807b673d987786f,
        type: 3}
      propertyPath: m_LocalRotation.x
      value: -0
      objectReference: {fileID: 0}
    - target: {fileID: 5374108044528907482, guid: 68846da80c909e940807b673d987786f,
        type: 3}
      propertyPath: m_LocalRotation.y
      value: -0
      objectReference: {fileID: 0}
    - target: {fileID: 5374108044528907482, guid: 68846da80c909e940807b673d987786f,
        type: 3}
      propertyPath: m_LocalRotation.z
      value: -0
      objectReference: {fileID: 0}
    - target: {fileID: 5374108044528907482, guid: 68846da80c909e940807b673d987786f,
        type: 3}
      propertyPath: m_LocalEulerAnglesHint.x
      value: 0
      objectReference: {fileID: 0}
    - target: {fileID: 5374108044528907482, guid: 68846da80c909e940807b673d987786f,
        type: 3}
      propertyPath: m_LocalEulerAnglesHint.y
      value: 0
      objectReference: {fileID: 0}
    - target: {fileID: 5374108044528907482, guid: 68846da80c909e940807b673d987786f,
        type: 3}
      propertyPath: m_LocalEulerAnglesHint.z
      value: 10
      objectReference: {fileID: 0}
    m_RemovedComponents: []
  m_SourcePrefab: {fileID: 100100000, guid: 68846da80c909e940807b673d987786f, type: 3}
--- !u!4 &8518299646756222945 stripped
Transform:
  m_CorrespondingSourceObject: {fileID: 5374108044528907482, guid: 68846da80c909e940807b673d987786f,
    type: 3}
  m_PrefabInstance: {fileID: 4369545720253612859}
  m_PrefabAsset: {fileID: 0}
