%YAML 1.1
%TAG !u! tag:unity3d.com,2011:
--- !u!1 &2105999399548258001
GameObject:
  m_ObjectHideFlags: 0
  m_CorrespondingSourceObject: {fileID: 0}
  m_PrefabInstance: {fileID: 0}
  m_PrefabAsset: {fileID: 0}
  serializedVersion: 6
  m_Component:
  - component: {fileID: 4441892659762440716}
  - component: {fileID: 5648447887885480574}
  - component: {fileID: 8838817722768114416}
  m_Layer: 0
  m_Name: Planet Explo Effect
  m_TagString: Untagged
  m_Icon: {fileID: 0}
  m_NavMeshLayer: 0
  m_StaticEditorFlags: 0
  m_IsActive: 1
--- !u!4 &4441892659762440716
Transform:
  m_ObjectHideFlags: 0
  m_CorrespondingSourceObject: {fileID: 0}
  m_PrefabInstance: {fileID: 0}
  m_PrefabAsset: {fileID: 0}
  m_GameObject: {fileID: 2105999399548258001}
  m_LocalRotation: {x: -0, y: -0, z: -0, w: 1}
  m_LocalPosition: {x: -4.7141, y: -2.0254, z: 0}
  m_LocalScale: {x: 1, y: 1, z: 1}
  m_Children: []
  m_Father: {fileID: 0}
  m_RootOrder: 0
  m_LocalEulerAnglesHint: {x: 0, y: 0, z: 0}
--- !u!114 &5648447887885480574
MonoBehaviour:
  m_ObjectHideFlags: 0
  m_CorrespondingSourceObject: {fileID: 0}
  m_PrefabInstance: {fileID: 0}
  m_PrefabAsset: {fileID: 0}
  m_GameObject: {fileID: 2105999399548258001}
  m_Enabled: 1
  m_EditorHideFlags: 0
  m_Script: {fileID: 11500000, guid: 49accf35e1b83364ea77df25b568e9fb, type: 3}
  m_Name: 
  m_EditorClassIdentifier: 
  spriteRenderer: {fileID: 8838817722768114416}
  effectSprites:
  - {fileID: 21300000, guid: 3678ab8e43ae6874d919798118f4ca50, type: 3}
  - {fileID: 21300000, guid: 78cc1cfe506ee2e438ff49f72f60141d, type: 3}
  - {fileID: 21300000, guid: e6c180df865c703469a0f5088b9a5bef, type: 3}
  - {fileID: 21300000, guid: 3a1963f359b684a438dcaf5086f78f76, type: 3}
  - {fileID: 21300000, guid: 19a530e92fed6fb4d926c3a6dbbaabb5, type: 3}
  - {fileID: 21300000, guid: 5059c2bd9ec8dee42b6cd3527cbcc641, type: 3}
  - {fileID: 21300000, guid: 58edd9ea0d26f5a4aaa2fd0bdefb5d50, type: 3}
  - {fileID: 21300000, guid: 59b32147729d70a448342adde59effdb, type: 3}
  - {fileID: 21300000, guid: 5eb2f666954ba90459c2cf37622aac51, type: 3}
  - {fileID: 21300000, guid: 0b37e1e11ba4488479559de3694de30a, type: 3}
  - {fileID: 21300000, guid: 6165b418bd4275048bfbdb89add07b45, type: 3}
  - {fileID: 21300000, guid: f4d97bb81f851674f81e4d7599c909ce, type: 3}
  - {fileID: 21300000, guid: 8e25b714872214a47a730e6d7e1302d7, type: 3}
  - {fileID: 21300000, guid: 1a1183369884c7e479e98dd816e5b48b, type: 3}
  - {fileID: 21300000, guid: 46277a304934db24099987f6dfd6dfc0, type: 3}
  - {fileID: 21300000, guid: ba8f467b74edba34c865807b37f274e9, type: 3}
  - {fileID: 21300000, guid: 4908761911281954dbe9e88f304f9f76, type: 3}
  - {fileID: 21300000, guid: 6b4a63f95d356054cb64c3cacfe20eaa, type: 3}
  - {fileID: 21300000, guid: 0a809a069b1182345b479e784907cff7, type: 3}
  - {fileID: 21300000, guid: 63f0ad0c19f63b94ca0b6fe16035aaf2, type: 3}
  - {fileID: 21300000, guid: 020a2440a2cc60a41b6c1c047515468b, type: 3}
  - {fileID: 21300000, guid: c78b5026c2bf71d4187408ee43cee01a, type: 3}
  - {fileID: 21300000, guid: bf67354270c85664db5daf728c719cf4, type: 3}
  intervalSec: 0.1
--- !u!212 &8838817722768114416
SpriteRenderer:
  m_ObjectHideFlags: 0
  m_CorrespondingSourceObject: {fileID: 0}
  m_PrefabInstance: {fileID: 0}
  m_PrefabAsset: {fileID: 0}
  m_GameObject: {fileID: 2105999399548258001}
  m_Enabled: 1
  m_CastShadows: 0
  m_ReceiveShadows: 0
  m_DynamicOccludee: 1
  m_MotionVectors: 1
  m_LightProbeUsage: 1
  m_ReflectionProbeUsage: 1
  m_RayTracingMode: 0
  m_RayTraceProcedural: 0
  m_RenderingLayerMask: 1
  m_RendererPriority: 0
  m_Materials:
  - {fileID: 10754, guid: 0000000000000000f000000000000000, type: 0}
  m_StaticBatchInfo:
    firstSubMesh: 0
    subMeshCount: 0
  m_StaticBatchRoot: {fileID: 0}
  m_ProbeAnchor: {fileID: 0}
  m_LightProbeVolumeOverride: {fileID: 0}
  m_ScaleInLightmap: 1
  m_ReceiveGI: 1
  m_PreserveUVs: 0
  m_IgnoreNormalsForChartDetection: 0
  m_ImportantGI: 0
  m_StitchLightmapSeams: 1
  m_SelectedEditorRenderState: 0
  m_MinimumChartSize: 4
  m_AutoUVMaxDistance: 0.5
  m_AutoUVMaxAngle: 89
  m_LightmapParameters: {fileID: 0}
  m_SortingLayerID: -422341009
  m_SortingLayer: 5
  m_SortingOrder: 0
  m_Sprite: {fileID: 21300000, guid: 3678ab8e43ae6874d919798118f4ca50, type: 3}
  m_Color: {r: 1, g: 1, b: 1, a: 1}
  m_FlipX: 0
  m_FlipY: 0
  m_DrawMode: 0
  m_Size: {x: 8.5, y: 8}
  m_AdaptiveModeThreshold: 0.5
  m_SpriteTileMode: 0
  m_WasSpriteAssigned: 1
  m_MaskInteraction: 0
  m_SpriteSortPoint: 0
