%YAML 1.1
%TAG !u! tag:unity3d.com,2011:
--- !u!114 &11400000
MonoBehaviour:
  m_ObjectHideFlags: 0
  m_CorrespondingSourceObject: {fileID: 0}
  m_PrefabInstance: {fileID: 0}
  m_PrefabAsset: {fileID: 0}
  m_GameObject: {fileID: 0}
  m_Enabled: 1
  m_EditorHideFlags: 0
  m_Script: {fileID: -1893448595, guid: a040fb66244a7f54289914d98ea4ef7d, type: 3}
  m_Name: Event Menu
  m_EditorClassIdentifier: 
  _data:
    _json: '{"graph":{"variables":{"collection":{"$content":[],"$version":"A"},"$version":"A"},"controlInputDefinitions":[],"controlOutputDefinitions":[],"valueInputDefinitions":[],"valueOutputDefinitions":[],"title":null,"summary":null,"pan":{"x":2.983271,"y":-35.94242},"zoom":1.0,"elements":[{"coroutine":false,"defaultValues":{"target":null},"position":{"x":-310.0,"y":-133.0},"guid":"c487e13c-afb4-4691-a319-2f00aebe2dff","$version":"A","$type":"Bolt.OnButtonClick","$id":"9"},{"defaultValues":{"name":{"$content":"Event
      Menu","$type":"System.String"}},"position":{"x":-89.0,"y":-146.0},"guid":"af0f539a-1de5-41d9-914c-f35d0988ea30","$version":"A","$type":"Bolt.CustomUnits.OpenPopupUnit","$id":"11"},{"sourceUnit":{"$ref":"9"},"sourceKey":"trigger","destinationUnit":{"$ref":"11"},"destinationKey":"enter","guid":"5c155f8e-d4e3-4cec-af57-53c7f171867a","$type":"Bolt.ControlConnection"}],"$version":"A"}}'
    _objectReferences: []
