%YAML 1.1
%TAG !u! tag:unity3d.com,2011:
--- !u!114 &11400000
MonoBehaviour:
  m_ObjectHideFlags: 0
  m_CorrespondingSourceObject: {fileID: 0}
  m_PrefabInstance: {fileID: 0}
  m_PrefabAsset: {fileID: 0}
  m_GameObject: {fileID: 0}
  m_Enabled: 1
  m_EditorHideFlags: 0
  m_Script: {fileID: -1893448595, guid: a040fb66244a7f54289914d98ea4ef7d, type: 3}
  m_Name: Shop Menu
  m_EditorClassIdentifier: 
  _data:
    _json: '{"graph":{"variables":{"collection":{"$content":[],"$version":"A"},"$version":"A"},"controlInputDefinitions":[],"controlOutputDefinitions":[],"valueInputDefinitions":[],"valueOutputDefinitions":[],"title":null,"summary":null,"pan":{"x":27.32939,"y":-16.70373},"zoom":1.0,"elements":[{"coroutine":false,"defaultValues":{"target":null},"position":{"x":-310.0,"y":-133.0},"guid":"c487e13c-afb4-4691-a319-2f00aebe2dff","$version":"A","$type":"Bolt.OnButtonClick","$id":"9"},{"chainable":false,"member":{"name":"Open","parameterTypes":["System.String"],"targetType":"UI.Popup.Menu.InGameMenu","targetTypeName":"UI.Popup.Menu.InGameMenu","$version":"A"},"defaultValues":{"%menuName":{"$content":"Shop
      Menu","$type":"System.String"}},"position":{"x":-99.0,"y":-131.0},"guid":"d65d107b-2c25-44fc-808a-814e4cdfe04a","$version":"A","$type":"Bolt.InvokeMember","$id":"11"},{"sourceUnit":{"$ref":"9"},"sourceKey":"trigger","destinationUnit":{"$ref":"11"},"destinationKey":"enter","guid":"72c8fe48-9d87-4eee-a2c1-f71b75c870b7","$type":"Bolt.ControlConnection"}],"$version":"A"}}'
    _objectReferences: []
