%YAML 1.1
%TAG !u! tag:unity3d.com,2011:
--- !u!114 &11400000
MonoBehaviour:
  m_ObjectHideFlags: 0
  m_CorrespondingSourceObject: {fileID: 0}
  m_PrefabInstance: {fileID: 0}
  m_PrefabAsset: {fileID: 0}
  m_GameObject: {fileID: 0}
  m_Enabled: 1
  m_EditorHideFlags: 0
  m_Script: {fileID: 1083378141, guid: dcd2196c4e9166f499793f2007fcda35, type: 3}
  m_Name: Buff Damage Button
  m_EditorClassIdentifier: 
  _data:
    _json: '{"graph":{"title":null,"summary":null,"pan":{"x":25.0,"y":-49.4327},"zoom":1.0,"elements":[{"nest":{"source":"Embed","macro":null,"embed":{"variables":{"collection":{"$content":[],"$version":"A"},"$version":"A"},"controlInputDefinitions":[],"controlOutputDefinitions":[],"valueInputDefinitions":[],"valueOutputDefinitions":[],"title":"2x","summary":null,"pan":{"x":193.9031,"y":-77.92752},"zoom":0.65,"elements":[{"coroutine":false,"defaultValues":{},"position":{"x":-323.0,"y":-252.0},"guid":"6c5e9f9b-3b8c-44ee-97f1-d985bce0d787","$version":"A","$type":"Bolt.OnEnterState","$id":"13"},{"chainable":false,"member":{"name":"sprite","parameterTypes":null,"targetType":"UnityEngine.UI.Image","targetTypeName":"UnityEngine.UI.Image","$version":"A"},"defaultValues":{"target":null,"input":{"$content":0,"$type":"UnityEngine.Object"}},"position":{"x":-21.0,"y":-250.0},"guid":"4ea7e485-8f91-4ad3-8d6b-5784d1c53e82","$version":"A","$type":"Bolt.SetMember","$id":"15"},{"chainable":false,"member":{"name":"DORestart","parameterTypes":[],"targetType":"DG.Tweening.DOTweenAnimation","targetTypeName":"DG.Tweening.DOTweenAnimation","$version":"A"},"defaultValues":{"target":null},"position":{"x":282.0,"y":157.0},"guid":"679b012e-ca2c-490f-9625-95dd01d1cfc2","$version":"A","$type":"Bolt.InvokeMember","$id":"18"},{"chainable":false,"member":{"name":"SetActive","parameterTypes":["System.Boolean"],"targetType":"UnityEngine.GameObject","targetTypeName":"UnityEngine.GameObject","$version":"A"},"defaultValues":{"target":null,"%value":{"$content":false,"$type":"System.Boolean"}},"position":{"x":44.0,"y":314.0},"guid":"b745465b-caa9-42b5-a23d-819a331b42ac","$version":"A","$type":"Bolt.InvokeMember","$id":"21"},{"coroutine":false,"defaultValues":{},"position":{"x":-264.0,"y":339.0},"guid":"717c5586-99c1-42dd-bcd4-910793fff851","$version":"A","$type":"Bolt.OnExitState","$id":"24"},{"chainable":false,"member":{"name":"Level","parameterTypes":null,"targetType":"InGame.Global.Buff.BuffDamageButton","targetTypeName":"InGame.Global.Buff.BuffDamageButton","$version":"A"},"defaultValues":{"target":null,"input":{"$content":0,"$type":"System.Int32"}},"position":{"x":242.0,"y":-250.0},"guid":"d52c725b-fa90-4df3-ac1b-14a72b0f8150","$version":"A","$type":"Bolt.SetMember","$id":"26"},{"specifyFallback":false,"kind":"Object","defaultValues":{"name":{"$content":"effect","$type":"System.String"},"object":null},"position":{"x":-183.0,"y":70.0},"guid":"0b02c70c-3021-428e-ba82-d99445b40fe9","$version":"A","$type":"Bolt.GetVariable","$id":"29"},{"coroutine":false,"defaultValues":{},"position":{"x":536.0,"y":-139.0},"guid":"d309f597-4427-4666-b19f-653ae020705b","$version":"A","$type":"Bolt.OnEnterState","$id":"31"},{"chainable":false,"member":{"name":"Activate","parameterTypes":[],"targetType":"InGame.Global.Buff.BuffDamageButton","targetTypeName":"InGame.Global.Buff.BuffDamageButton","$version":"A"},"defaultValues":{"target":null},"position":{"x":759.0,"y":-142.0},"guid":"d9552700-4ee0-4423-b43d-ea9142592ab4","$version":"A","$type":"Bolt.InvokeMember","$id":"33"},{"chainable":false,"member":{"name":"SetActive","parameterTypes":["System.Boolean"],"targetType":"UnityEngine.GameObject","targetTypeName":"UnityEngine.GameObject","$version":"A"},"defaultValues":{"target":null,"%value":{"$content":true,"$type":"System.Boolean"}},"position":{"x":42.0,"y":159.0},"guid":"ef3c467e-2233-4905-94b3-657148cce8b3","$version":"A","$type":"Bolt.InvokeMember","$id":"36"},{"chainable":false,"member":{"name":"DOPause","parameterTypes":[],"targetType":"DG.Tweening.DOTweenAnimation","targetTypeName":"DG.Tweening.DOTweenAnimation","$version":"A"},"defaultValues":{"target":null},"position":{"x":286.0,"y":328.0},"guid":"41c29537-0c4d-4717-9267-4e50b061d6b0","$version":"A","$type":"Bolt.InvokeMember"},{"coroutine":false,"defaultValues":{},"position":{"x":-273.0,"y":205.0},"guid":"87424b7a-e4ca-408b-a64c-fc554dbf01d0","$version":"A","$type":"Bolt.OnEnterState","$id":"42"},{"portType":"System.Object","defaultValues":{},"position":{"x":189.0,"y":107.0},"guid":"938ab7c3-22da-4ed3-99be-03b277ab63fb","$version":"A","$type":"Bolt.Addons.Community.Fundamentals.Units.Utility.ValueReroute","$id":"44"},{"specifyFallback":false,"kind":"Object","defaultValues":{"name":{"$content":"image","$type":"System.String"},"object":null},"position":{"x":-232.0,"y":-124.0},"guid":"bdea493e-c0dd-41c3-a652-1efd41e9b982","$version":"A","$type":"Bolt.GetVariable","$id":"46"},{"type":"System.Int32","value":{"$content":2,"$type":"System.Int32"},"defaultValues":{},"position":{"x":70.0,"y":-91.0},"guid":"8abaab0f-9889-49d7-880c-b7e241fe4e94","$version":"A","$type":"Bolt.Literal","$id":"48"},{"sourceUnit":{"$ref":"24"},"sourceKey":"trigger","destinationUnit":{"$ref":"21"},"destinationKey":"enter","guid":"a970f822-a8cc-4473-ab91-d68a46cf0b43","$type":"Bolt.ControlConnection"},{"sourceUnit":{"$ref":"42"},"sourceKey":"trigger","destinationUnit":{"$ref":"36"},"destinationKey":"enter","guid":"1ae282ef-e6d0-4277-8698-fa298832a733","$type":"Bolt.ControlConnection"},{"sourceUnit":{"$ref":"36"},"sourceKey":"exit","destinationUnit":{"$ref":"18"},"destinationKey":"enter","guid":"50d7959e-6867-49a7-a996-b5550ba0f9ac","$type":"Bolt.ControlConnection"},{"sourceUnit":{"$ref":"13"},"sourceKey":"trigger","destinationUnit":{"$ref":"15"},"destinationKey":"assign","guid":"2195770f-ed1a-4537-92ea-969a0cffdc5d","$type":"Bolt.ControlConnection"},{"sourceUnit":{"$ref":"15"},"sourceKey":"assigned","destinationUnit":{"$ref":"26"},"destinationKey":"assign","guid":"9850921b-9c9b-4042-9289-a88f3ee071f8","$type":"Bolt.ControlConnection"},{"sourceUnit":{"$ref":"31"},"sourceKey":"trigger","destinationUnit":{"$ref":"33"},"destinationKey":"enter","guid":"a4986fec-e9a2-4402-987b-1008e4220226","$type":"Bolt.ControlConnection"},{"sourceUnit":{"$ref":"44"},"sourceKey":"out","destinationUnit":{"$ref":"18"},"destinationKey":"target","guid":"4eb77183-eeef-45d6-baf4-c45280810191","$type":"Bolt.ValueConnection"},{"sourceUnit":{"$ref":"29"},"sourceKey":"value","destinationUnit":{"$ref":"44"},"destinationKey":"in","guid":"ad927f54-086a-44d7-a3c1-18b51bc7becd","$type":"Bolt.ValueConnection"},{"sourceUnit":{"$ref":"29"},"sourceKey":"value","destinationUnit":{"$ref":"21"},"destinationKey":"target","guid":"22a0a62d-7dcb-4844-8229-a60e4f37a2b3","$type":"Bolt.ValueConnection"},{"sourceUnit":{"$ref":"29"},"sourceKey":"value","destinationUnit":{"$ref":"36"},"destinationKey":"target","guid":"04775b5c-8a43-4a09-ac07-6e83b2405e56","$type":"Bolt.ValueConnection"},{"sourceUnit":{"$ref":"46"},"sourceKey":"value","destinationUnit":{"$ref":"15"},"destinationKey":"target","guid":"63463cd2-af85-456c-ac87-4e9c8d3036d7","$type":"Bolt.ValueConnection"},{"sourceUnit":{"$ref":"48"},"sourceKey":"output","destinationUnit":{"$ref":"26"},"destinationKey":"input","guid":"9fcc8f92-75d2-4e75-9e9d-25c735efdfcc","$type":"Bolt.ValueConnection"},{"position":{"xMin":-345.0,"yMin":-295.0,"xMax":452.0,"yMax":9.0},"label":"\uc2a4\ud0a8
      \uad50\uccb4 & \ub370\ubbf8\uc9c0 2\ubc30 \uc801\uc6a9 ","comment":null,"color":{"r":0.0,"g":0.0,"b":0.0,"a":1.0},"guid":"747b0640-cac7-41b3-adbe-07dd53f5171c","$version":"A","$type":"Ludiq.GraphGroup"},{"position":{"xMin":492.0,"yMin":-182.0,"xMax":939.0,"yMax":6.0},"label":"\uc8fc\uae30\uc801\uc73c\ub85c
      \uc2dc\uac04 \uc18c\ubaa8 ","comment":null,"color":{"r":0.0,"g":0.0,"b":0.0,"a":1.0},"guid":"a96339bb-0831-4c65-9f12-23c76ba5fd75","$version":"A","$type":"Ludiq.GraphGroup"},{"position":{"xMin":-340.0,"yMin":31.0,"xMax":587.0,"yMax":468.0},"label":"\uae5c\ube61\uac70\ub9bc
      \ud6a8\uacfc","comment":null,"color":{"r":0.0,"g":0.0,"b":0.0,"a":1.0},"guid":"c4aa19b4-a39a-4cdc-acf8-ea345b729da6","$version":"A","$type":"Ludiq.GraphGroup"}],"$version":"A"}},"isStart":false,"position":{"x":162.0,"y":58.0},"width":170.0,"guid":"22e385f7-b951-4631-9788-1cf553b58a17","$version":"A","$type":"Bolt.FlowState","$id":"3"},{"nest":{"source":"Embed","macro":null,"embed":{"variables":{"collection":{"$content":[],"$version":"A"},"$version":"A"},"controlInputDefinitions":[],"controlOutputDefinitions":[],"valueInputDefinitions":[],"valueOutputDefinitions":[],"title":"1x","summary":null,"pan":{"x":168.8087,"y":-56.40244},"zoom":1.0,"elements":[{"coroutine":false,"defaultValues":{},"position":{"x":-251.0,"y":-222.0},"guid":"404ef9c4-8d94-44a3-8bb6-66f3ec82afca","$version":"A","$type":"Bolt.OnEnterState","$id":"75"},{"chainable":false,"member":{"name":"SetActive","parameterTypes":["System.Boolean"],"targetType":"UnityEngine.GameObject","targetTypeName":"UnityEngine.GameObject","$version":"A"},"defaultValues":{"target":null,"%value":{"$content":false,"$type":"System.Boolean"}},"position":{"x":496.0,"y":-225.0},"guid":"4dff9e7a-ec74-4979-8071-028c60ca908f","$version":"A","$type":"Bolt.InvokeMember","$id":"77"},{"specifyFallback":false,"kind":"Object","defaultValues":{"name":{"$content":"effect","$type":"System.String"},"object":null},"position":{"x":284.0,"y":30.0},"guid":"287f4b6b-d067-42b6-9bd5-ec31ff30b459","$version":"A","$type":"Bolt.GetVariable","$id":"80"},{"chainable":false,"member":{"name":"sprite","parameterTypes":null,"targetType":"UnityEngine.UI.Image","targetTypeName":"UnityEngine.UI.Image","$version":"A"},"defaultValues":{"target":null,"input":{"$content":1,"$type":"UnityEngine.Object"}},"position":{"x":-27.0,"y":-222.0},"guid":"416ef48c-810f-42f4-af0d-b5b44928d5c5","$version":"A","$type":"Bolt.SetMember","$id":"82"},{"type":"System.Int32","value":{"$content":1,"$type":"System.Int32"},"defaultValues":{},"position":{"x":58.0,"y":-47.0},"guid":"82d9fdee-c18e-4059-ba32-6cd9db9743fb","$version":"A","$type":"Bolt.Literal","$id":"85"},{"specifyFallback":false,"kind":"Object","defaultValues":{"name":{"$content":"image","$type":"System.String"},"object":null},"position":{"x":-210.0,"y":-88.0},"guid":"d20664e0-384f-4095-88bf-85bda6510457","$version":"A","$type":"Bolt.GetVariable","$id":"87"},{"chainable":false,"member":{"name":"Level","parameterTypes":null,"targetType":"InGame.Global.Buff.BuffDamageButton","targetTypeName":"InGame.Global.Buff.BuffDamageButton","$version":"A"},"defaultValues":{"target":null,"input":{"$content":0,"$type":"System.Int32"}},"position":{"x":259.0,"y":-213.0},"guid":"c0756231-bc10-4771-9159-d03f34d3a626","$version":"A","$type":"Bolt.SetMember","$id":"89"},{"coroutine":false,"defaultValues":{},"position":{"x":-227.0,"y":268.0},"guid":"2d24c74b-acf5-46d7-b220-0a6cfdca10d4","$version":"A","$type":"Bolt.OnEnterState","$id":"92"},{"chainable":false,"member":{"name":"Deactivate","parameterTypes":[],"targetType":"InGame.Global.Buff.BuffDamageButton","targetTypeName":"InGame.Global.Buff.BuffDamageButton","$version":"A"},"defaultValues":{"target":null},"position":{"x":-4.0,"y":265.0},"guid":"2e569f03-f74e-4965-802d-a4620a2e4959","$version":"A","$type":"Bolt.InvokeMember","$id":"94"},{"sourceUnit":{"$ref":"75"},"sourceKey":"trigger","destinationUnit":{"$ref":"82"},"destinationKey":"assign","guid":"23afe75c-85f0-4d90-b280-fec49bca1afa","$type":"Bolt.ControlConnection"},{"sourceUnit":{"$ref":"82"},"sourceKey":"assigned","destinationUnit":{"$ref":"89"},"destinationKey":"assign","guid":"a1e8fa76-06db-4227-a4d1-6a32635005f7","$type":"Bolt.ControlConnection"},{"sourceUnit":{"$ref":"89"},"sourceKey":"assigned","destinationUnit":{"$ref":"77"},"destinationKey":"enter","guid":"bf6aa321-773d-4919-9ec5-3c915a4d5189","$type":"Bolt.ControlConnection"},{"sourceUnit":{"$ref":"92"},"sourceKey":"trigger","destinationUnit":{"$ref":"94"},"destinationKey":"enter","guid":"2cf63fe2-fda1-42c8-ba79-6a01e6a6aaaa","$type":"Bolt.ControlConnection"},{"sourceUnit":{"$ref":"87"},"sourceKey":"value","destinationUnit":{"$ref":"82"},"destinationKey":"target","guid":"2841f9ff-dd66-4bcf-810a-5d06ea9aa213","$type":"Bolt.ValueConnection"},{"sourceUnit":{"$ref":"80"},"sourceKey":"value","destinationUnit":{"$ref":"77"},"destinationKey":"target","guid":"efa7f2bf-e310-45c5-8f74-c5908bf0e3a6","$type":"Bolt.ValueConnection"},{"sourceUnit":{"$ref":"85"},"sourceKey":"output","destinationUnit":{"$ref":"89"},"destinationKey":"input","guid":"131bd467-fb21-4df3-ba7f-70ef9b9db629","$type":"Bolt.ValueConnection"},{"position":{"xMin":-287.0,"yMin":-277.0,"xMax":659.0,"yMax":189.0},"label":"\uc774\ubbf8\uc9c0
      \uad50\uccb4, \ub370\ubbf8\uc9c0 \uc6d0\ubcf5, \uc774\ud399\ud2b8 \ub044\uae30
      ","comment":null,"color":{"r":0.0,"g":0.0,"b":0.0,"a":1.0},"guid":"270df59a-b38c-48c2-8061-736ebed03eda","$version":"A","$type":"Ludiq.GraphGroup"},{"position":{"xMin":-271.0,"yMin":225.0,"xMax":176.0,"yMax":413.0},"label":"\uba48\ucda4","comment":null,"color":{"r":0.0,"g":0.0,"b":0.0,"a":1.0},"guid":"07d42109-13bf-488c-b636-a6946c3c9858","$version":"A","$type":"Ludiq.GraphGroup"}],"$version":"A"}},"isStart":false,"position":{"x":-314.0,"y":62.0},"width":170.0,"guid":"f5c4067d-25cd-49f9-be35-74260c3a6c3c","$version":"A","$type":"Bolt.FlowState","$id":"65"},{"nest":{"source":"Embed","macro":null,"embed":{"variables":{"collection":{"$content":[],"$version":"A"},"$version":"A"},"controlInputDefinitions":[],"controlOutputDefinitions":[],"valueInputDefinitions":[],"valueOutputDefinitions":[],"title":"Default","summary":null,"pan":{"x":-25.84361,"y":-5.597836},"zoom":1.0,"elements":[],"$version":"A"}},"isStart":false,"position":{"x":-70.0,"y":-78.0},"width":170.0,"guid":"ad242df7-b599-4290-ac2f-99b7ce36d8c0","$version":"A","$type":"Bolt.FlowState","$id":"106"},{"nest":{"source":"Embed","macro":null,"embed":{"variables":{"collection":{"$content":[],"$version":"A"},"$version":"A"},"controlInputDefinitions":[],"controlOutputDefinitions":[],"valueInputDefinitions":[],"valueOutputDefinitions":[],"title":"Start","summary":null,"pan":{"x":0.0,"y":0.0},"zoom":1.0,"elements":[],"$version":"A"}},"isStart":true,"position":{"x":-323.0,"y":-77.0},"width":170.0,"guid":"e4010758-5d8f-4232-8071-74f1b1a7dce7","$version":"A","$type":"Bolt.FlowState","$id":"116"},{"nest":{"source":"Embed","macro":null,"embed":{"variables":{"collection":{"$content":[],"$version":"A"},"$version":"A"},"controlInputDefinitions":[],"controlOutputDefinitions":[],"valueInputDefinitions":[],"valueOutputDefinitions":[],"title":null,"summary":null,"pan":{"x":15.36436,"y":590.3986},"zoom":0.8,"elements":[{"defaultValues":{},"position":{"x":440.0,"y":-57.0},"guid":"89c33caf-bc7c-4205-b3a2-453d94e114da","$version":"A","$type":"Bolt.TriggerStateTransition","$id":"136"},{"defaultValues":{},"position":{"x":227.0,"y":581.0},"guid":"290c11d6-a429-4de3-83cf-66506e1a76bb","$version":"A","$type":"Bolt.TriggerStateTransition","$id":"138"},{"chainable":false,"member":{"name":"IsEnoughDuration","parameterTypes":[],"targetType":"InGame.Global.Buff.BuffDamageButton","targetTypeName":"InGame.Global.Buff.BuffDamageButton","$version":"A"},"defaultValues":{"target":null},"position":{"x":-271.0,"y":97.0},"guid":"64fdbf1c-28d0-4625-a1a0-dc3557319a71","$version":"A","$type":"Bolt.InvokeMember","$id":"140"},{"coroutine":false,"defaultValues":{"target":null},"position":{"x":-379.0,"y":346.0},"guid":"c3133f86-88ec-4fc9-b5ce-0a9655f50fa4","$version":"A","$type":"Bolt.OnButtonClick","$id":"143"},{"coroutine":false,"defaultValues":{"seconds":{"$content":0.1,"$type":"System.Single"},"unscaledTime":{"$content":true,"$type":"System.Boolean"}},"position":{"x":-383.0,"y":-61.0},"guid":"7a57d769-3e4d-4150-8add-0fcca68b7260","$version":"A","$type":"Bolt.Addons.Community.Fundamentals.OnEveryXSeconds","$id":"145"},{"defaultValues":{},"position":{"x":-153.0,"y":347.0},"guid":"31bad407-785c-40fa-821b-4506a768414f","$version":"A","$type":"Bolt.TriggerStateTransition","$id":"147"},{"chainable":false,"member":{"name":"CheckIfCanBeInfinityTime","parameterTypes":[],"targetType":"InGame.Global.Buff.BuffDamageButton","targetTypeName":"InGame.Global.Buff.BuffDamageButton","$version":"A"},"defaultValues":{"target":null},"position":{"x":-15.0,"y":96.0},"guid":"eacd6202-b23d-451e-abac-c6103bb9a4de","$version":"A","$type":"Bolt.InvokeMember","$id":"149"},{"argumentCount":1,"coroutine":false,"defaultValues":{"target":null,"name":{"$content":"OnChangedLevel","$type":"System.String"}},"position":{"x":-395.0,"y":581.0},"guid":"3966a8b8-b814-489b-b75b-1af45c27103c","$version":"A","$type":"Bolt.CustomEvent","$id":"152"},{"numeric":false,"defaultValues":{},"position":{"x":-115.0,"y":687.0},"guid":"5cccb098-3f42-4f68-a703-0407cb43a114","$version":"A","$type":"Bolt.Equal","$id":"154"},{"type":"System.Int32","value":{"$content":1,"$type":"System.Int32"},"defaultValues":{},"position":{"x":-263.0,"y":740.0},"guid":"4799110a-7618-4e50-8d8f-d42ba3dbd199","$version":"A","$type":"Bolt.Literal","$id":"156"},{"defaultValues":{},"position":{"x":49.0,"y":577.0},"guid":"0555335d-9b09-4a98-a80b-2646ae5024b3","$version":"A","$type":"Bolt.Branch","$id":"158"},{"defaultValues":{},"position":{"x":-11.0,"y":-60.0},"guid":"b3d1a288-71ed-44ae-8972-5c8bac1f8848","$version":"A","$type":"Bolt.Branch","$id":"160"},{"defaultValues":{},"position":{"x":265.0,"y":-56.0},"guid":"4521245d-5424-43cc-9b63-a086cbb74d5c","$version":"A","$type":"Bolt.Branch","$id":"162"},{"sourceUnit":{"$ref":"145"},"sourceKey":"trigger","destinationUnit":{"$ref":"160"},"destinationKey":"enter","guid":"77acb653-1a61-418a-80d8-8bf11a8a674e","$type":"Bolt.ControlConnection"},{"sourceUnit":{"$ref":"160"},"sourceKey":"ifFalse","destinationUnit":{"$ref":"162"},"destinationKey":"enter","guid":"61ede3b3-13f8-4713-8c52-02f5c2617a0a","$type":"Bolt.ControlConnection"},{"sourceUnit":{"$ref":"162"},"sourceKey":"ifFalse","destinationUnit":{"$ref":"136"},"destinationKey":"trigger","guid":"f59c34bf-fd50-4b53-934b-2a4c855252f3","$type":"Bolt.ControlConnection"},{"sourceUnit":{"$ref":"143"},"sourceKey":"trigger","destinationUnit":{"$ref":"147"},"destinationKey":"trigger","guid":"4cf36b59-4cde-421e-842e-d7442642f1ba","$type":"Bolt.ControlConnection"},{"sourceUnit":{"$ref":"158"},"sourceKey":"ifTrue","destinationUnit":{"$ref":"138"},"destinationKey":"trigger","guid":"7294eb4f-fa4b-4f53-bee7-fcb4fab26f2c","$type":"Bolt.ControlConnection"},{"sourceUnit":{"$ref":"152"},"sourceKey":"trigger","destinationUnit":{"$ref":"158"},"destinationKey":"enter","guid":"0603a095-dabb-479b-ae29-9303a38522e1","$type":"Bolt.ControlConnection"},{"sourceUnit":{"$ref":"140"},"sourceKey":"result","destinationUnit":{"$ref":"160"},"destinationKey":"condition","guid":"5ab44e12-0e90-4d21-ad1b-7aab82f34211","$type":"Bolt.ValueConnection"},{"sourceUnit":{"$ref":"149"},"sourceKey":"result","destinationUnit":{"$ref":"162"},"destinationKey":"condition","guid":"e539960c-8c9e-41f0-ab69-63dbdb341940","$type":"Bolt.ValueConnection"},{"sourceUnit":{"$ref":"152"},"sourceKey":"argument_0","destinationUnit":{"$ref":"154"},"destinationKey":"a","guid":"d1d6b630-b50e-42dc-a979-70ceefad1263","$type":"Bolt.ValueConnection"},{"sourceUnit":{"$ref":"156"},"sourceKey":"output","destinationUnit":{"$ref":"154"},"destinationKey":"b","guid":"966589db-d610-4988-955e-9796b0523c14","$type":"Bolt.ValueConnection"},{"sourceUnit":{"$ref":"154"},"sourceKey":"equal","destinationUnit":{"$ref":"158"},"destinationKey":"condition","guid":"bc69aa6d-3486-4ba1-831d-527679d184a5","$type":"Bolt.ValueConnection"},{"position":{"xMin":-415.0,"yMin":-122.0,"xMax":618.0,"yMax":233.0},"label":"\ub0a8\uc740
      \uc2dc\uac04 \uc5c6\uc744 \ub54c, \uc790\ub3d9 \uc804\ud658","comment":null,"color":{"r":0.0,"g":0.0,"b":0.0,"a":1.0},"guid":"3f528159-c982-4a70-b6f4-442d4a82ac1c","$version":"A","$type":"Ludiq.GraphGroup"},{"position":{"xMin":-427.0,"yMin":282.0,"xMax":49.0,"yMax":517.0},"label":"\ubc84\ud2bc
      \ub20c\ub9ac\uba74, \ubc14\ub85c \uc804\ud658","comment":null,"color":{"r":0.0,"g":0.0,"b":0.0,"a":1.0},"guid":"3166b21d-5d9d-4be9-89ab-c50e6524a078","$version":"A","$type":"Ludiq.GraphGroup"},{"position":{"xMin":-419.0,"yMin":540.0,"xMax":404.0,"yMax":857.0},"label":"Group","comment":null,"color":{"r":0.0,"g":0.0,"b":0.0,"a":1.0},"guid":"4acad770-4c44-4b73-a19e-3d91dcb6611e","$version":"A","$type":"Ludiq.GraphGroup"}],"$version":"A"}},"source":{"$ref":"3"},"destination":{"$ref":"65"},"guid":"8d10aff9-3b50-4692-ae4d-549abc9df240","$version":"A","$type":"Bolt.FlowStateTransition"},{"nest":{"source":"Embed","macro":null,"embed":{"variables":{"collection":{"$content":[],"$version":"A"},"$version":"A"},"controlInputDefinitions":[],"controlOutputDefinitions":[],"valueInputDefinitions":[],"valueOutputDefinitions":[],"title":null,"summary":null,"pan":{"x":-227.9166,"y":551.4083},"zoom":1.0,"elements":[{"defaultValues":{},"position":{"x":136.0,"y":-141.0},"guid":"7aceedd9-d004-47c3-9751-35d58549a737","$version":"A","$type":"Bolt.TriggerStateTransition","$id":"188"},{"defaultValues":{},"position":{"x":22.0,"y":488.0},"guid":"7685cbc6-416d-424a-8082-3ee923991ad9","$version":"A","$type":"Bolt.TriggerStateTransition","$id":"190"},{"chainable":false,"member":{"name":"CheckIfCanBeInfinityTime","parameterTypes":[],"targetType":"InGame.Global.Buff.BuffDamageButton","targetTypeName":"InGame.Global.Buff.BuffDamageButton","$version":"A"},"defaultValues":{"target":null},"position":{"x":-436.0,"y":-141.0},"guid":"9f9379ae-ce32-43b9-8094-805a17c84cf7","$version":"A","$type":"Bolt.InvokeMember","$id":"192"},{"defaultValues":{},"position":{"x":-19.0,"y":-186.0},"guid":"7bf2c6a0-48c6-49bd-aeeb-07e31083f534","$version":"A","$type":"Bolt.Branch","$id":"195"},{"argumentCount":0,"coroutine":false,"defaultValues":{"target":null,"name":{"$content":"Watched
      Ads","$type":"System.String"}},"position":{"x":-91.0,"y":269.0},"guid":"9dcf62a0-f871-4171-80dc-daf99276b6b8","$version":"A","$type":"Bolt.CustomEvent","$id":"197"},{"defaultValues":{},"position":{"x":122.0,"y":274.0},"guid":"2e151bc3-84ec-4551-b286-46215911679c","$version":"A","$type":"Bolt.TriggerStateTransition","$id":"199"},{"chainable":false,"member":{"name":"OpenAdsPopup","parameterTypes":[],"targetType":"InGame.Global.Buff.BuffDamageButton","targetTypeName":"InGame.Global.Buff.BuffDamageButton","$version":"A"},"defaultValues":{"target":null},"position":{"x":133.0,"y":17.0},"guid":"22904720-5ed8-497d-84ac-2858593a4889","$version":"A","$type":"Bolt.InvokeMember","$id":"201"},{"chainable":false,"member":{"name":"IsEnoughDuration","parameterTypes":[],"targetType":"InGame.Global.Buff.BuffDamageButton","targetTypeName":"InGame.Global.Buff.BuffDamageButton","$version":"A"},"defaultValues":{"target":null},"position":{"x":-379.0,"y":-283.0},"guid":"35493a60-bbb6-43c8-8955-306a3db554f2","$version":"A","$type":"Bolt.InvokeMember","$id":"204"},{"argumentCount":1,"coroutine":false,"defaultValues":{"target":null,"name":{"$content":"OnChangedLevel","$type":"System.String"}},"position":{"x":-600.0,"y":488.0},"guid":"3667c96a-3aeb-4d47-97d8-2433b0085e08","$version":"A","$type":"Bolt.CustomEvent","$id":"207"},{"numeric":false,"defaultValues":{},"position":{"x":-320.0,"y":594.0},"guid":"66d3a1f3-6756-4234-8b88-fb39c8137658","$version":"A","$type":"Bolt.Equal","$id":"209"},{"type":"System.Int32","value":{"$content":2,"$type":"System.Int32"},"defaultValues":{},"position":{"x":-468.0,"y":647.0},"guid":"18d001d1-9d56-4f07-a50f-b95128b170da","$version":"A","$type":"Bolt.Literal","$id":"211"},{"defaultValues":{},"position":{"x":-156.0,"y":484.0},"guid":"0b15d33b-c720-465a-89b1-df6855566527","$version":"A","$type":"Bolt.Branch","$id":"213"},{"coroutine":true,"defaultValues":{"target":null},"position":{"x":-664.0,"y":-167.0},"guid":"50ebf698-51b8-4e2f-8eb1-bb074eead82f","$version":"A","$type":"Bolt.OnButtonClick","$id":"215"},{"defaultValues":{},"position":{"x":-156.0,"y":-258.0},"guid":"af50f2f2-2e86-4bf6-876d-a808814900c3","$version":"A","$type":"Bolt.Or","$id":"217"},{"sourceUnit":{"$ref":"197"},"sourceKey":"trigger","destinationUnit":{"$ref":"199"},"destinationKey":"trigger","guid":"e425f06f-5a15-4813-8402-a93f55f390a7","$type":"Bolt.ControlConnection"},{"sourceUnit":{"$ref":"195"},"sourceKey":"ifTrue","destinationUnit":{"$ref":"188"},"destinationKey":"trigger","guid":"e53bfcd8-51e4-4074-b09d-a1252d241278","$type":"Bolt.ControlConnection"},{"sourceUnit":{"$ref":"195"},"sourceKey":"ifFalse","destinationUnit":{"$ref":"201"},"destinationKey":"enter","guid":"892f0c82-859e-42c0-89b5-71f26fac2398","$type":"Bolt.ControlConnection"},{"sourceUnit":{"$ref":"215"},"sourceKey":"trigger","destinationUnit":{"$ref":"192"},"destinationKey":"enter","guid":"e49d0f14-129d-49c4-b2d1-7235e1adf29f","$type":"Bolt.ControlConnection"},{"sourceUnit":{"$ref":"192"},"sourceKey":"exit","destinationUnit":{"$ref":"195"},"destinationKey":"enter","guid":"4d372c41-ec98-426a-ac1a-82519f3d599d","$type":"Bolt.ControlConnection"},{"sourceUnit":{"$ref":"213"},"sourceKey":"ifTrue","destinationUnit":{"$ref":"190"},"destinationKey":"trigger","guid":"8ee7ddfc-2ca7-4cbc-be65-10cd721e944b","$type":"Bolt.ControlConnection"},{"sourceUnit":{"$ref":"207"},"sourceKey":"trigger","destinationUnit":{"$ref":"213"},"destinationKey":"enter","guid":"281a784c-dc9f-4b1e-b036-136724c005a1","$type":"Bolt.ControlConnection"},{"sourceUnit":{"$ref":"217"},"sourceKey":"result","destinationUnit":{"$ref":"195"},"destinationKey":"condition","guid":"87d8d1e9-5e57-47e1-9c54-c7b87e466f2f","$type":"Bolt.ValueConnection"},{"sourceUnit":{"$ref":"192"},"sourceKey":"result","destinationUnit":{"$ref":"217"},"destinationKey":"b","guid":"ce06bf33-b818-4824-b8ba-549206a56a52","$type":"Bolt.ValueConnection"},{"sourceUnit":{"$ref":"204"},"sourceKey":"result","destinationUnit":{"$ref":"217"},"destinationKey":"a","guid":"23c74501-f5da-4019-8833-9717b16ecbcb","$type":"Bolt.ValueConnection"},{"sourceUnit":{"$ref":"207"},"sourceKey":"argument_0","destinationUnit":{"$ref":"209"},"destinationKey":"a","guid":"cd955ae7-10e4-4c58-98b3-e0aefb2f5d55","$type":"Bolt.ValueConnection"},{"sourceUnit":{"$ref":"211"},"sourceKey":"output","destinationUnit":{"$ref":"209"},"destinationKey":"b","guid":"a6765ad0-2bc0-482e-818a-53012e2604ba","$type":"Bolt.ValueConnection"},{"sourceUnit":{"$ref":"209"},"sourceKey":"equal","destinationUnit":{"$ref":"213"},"destinationKey":"condition","guid":"2a2d7b53-e7d9-43eb-9aeb-b8ad57500909","$type":"Bolt.ValueConnection"},{"position":{"xMin":-685.0,"yMin":-336.0,"xMax":312.0,"yMax":161.0},"label":"Group","comment":null,"color":{"r":0.0,"g":0.0,"b":0.0,"a":1.0},"guid":"ab0e4988-bda6-49b6-ba29-2ab8cd8c835d","$version":"A","$type":"Ludiq.GraphGroup"},{"position":{"xMin":-138.0,"yMin":200.0,"xMax":311.0,"yMax":433.0},"label":"Group","comment":null,"color":{"r":0.0,"g":0.0,"b":0.0,"a":1.0},"guid":"7cb51c3a-c47d-4278-a5d6-c02ecee3ae8f","$version":"A","$type":"Ludiq.GraphGroup"},{"position":{"xMin":-624.0,"yMin":447.0,"xMax":199.0,"yMax":764.0},"label":"Group","comment":null,"color":{"r":0.0,"g":0.0,"b":0.0,"a":1.0},"guid":"9165a580-40aa-44b3-be2d-d5d53e315a83","$version":"A","$type":"Ludiq.GraphGroup"}],"$version":"A"}},"source":{"$ref":"65"},"destination":{"$ref":"3"},"guid":"edbccde1-ba53-4366-92f5-a37b4e5aa534","$version":"A","$type":"Bolt.FlowStateTransition"},{"nest":{"source":"Embed","macro":null,"embed":{"variables":{"collection":{"$content":[],"$version":"A"},"$version":"A"},"controlInputDefinitions":[],"controlOutputDefinitions":[],"valueInputDefinitions":[],"valueOutputDefinitions":[],"title":null,"summary":null,"pan":{"x":62.0,"y":29.0},"zoom":1.0,"elements":[{"defaultValues":{},"position":{"x":183.0,"y":-16.0},"guid":"fa6dee07-4523-4588-b69b-b962ccd38aae","$version":"A","$type":"Bolt.TriggerStateTransition","$id":"245"},{"options":[1,2],"defaultValues":{},"position":{"x":-5.0,"y":-16.0},"guid":"0d8898f8-51c7-4c3d-b13c-ac1495d231af","$version":"A","$type":"Bolt.SwitchOnInteger","$id":"247"},{"coroutine":false,"defaultValues":{},"position":{"x":-215.0,"y":-114.0},"guid":"288ca714-e42e-4a44-8952-4b7d9a2769bb","$version":"A","$type":"Bolt.OnEnterState","$id":"250"},{"member":{"name":"Level","parameterTypes":null,"targetType":"InGame.Global.Buff.BuffDamageButton","targetTypeName":"InGame.Global.Buff.BuffDamageButton","$version":"A"},"defaultValues":{"target":null},"position":{"x":-238.0,"y":12.0},"guid":"338506ef-1385-4d05-ab42-23676a25ee29","$version":"A","$type":"Bolt.GetMember","$id":"252"},{"sourceUnit":{"$ref":"250"},"sourceKey":"trigger","destinationUnit":{"$ref":"247"},"destinationKey":"enter","guid":"b90c47ba-bf65-4831-a793-d1d5808d7583","$type":"Bolt.ControlConnection"},{"sourceUnit":{"$ref":"247"},"sourceKey":"%1","destinationUnit":{"$ref":"245"},"destinationKey":"trigger","guid":"4f4a7f8f-3127-4bdc-9bf8-d8a629fb79a4","$type":"Bolt.ControlConnection"},{"sourceUnit":{"$ref":"247"},"sourceKey":"default","destinationUnit":{"$ref":"245"},"destinationKey":"trigger","guid":"5370eef9-7159-4f26-b664-37db8eaa2294","$type":"Bolt.ControlConnection"},{"sourceUnit":{"$ref":"252"},"sourceKey":"value","destinationUnit":{"$ref":"247"},"destinationKey":"selector","guid":"9b34b0f5-4d2c-41e8-823c-200e8c4fcd83","$type":"Bolt.ValueConnection"},{"position":{"xMin":-317.0,"yMin":-164.0,"xMax":396.0,"yMax":187.0},"label":"OnEnterState","comment":null,"color":{"r":0.0,"g":0.0,"b":0.0,"a":1.0},"guid":"6c670414-1b70-4035-866b-5b4d1fbc98ec","$version":"A","$type":"Ludiq.GraphGroup"}],"$version":"A"}},"source":{"$ref":"106"},"destination":{"$ref":"65"},"guid":"235b86bc-40a2-42fc-8705-f126bef5a4c2","$version":"A","$type":"Bolt.FlowStateTransition"},{"nest":{"source":"Embed","macro":null,"embed":{"variables":{"collection":{"$content":[],"$version":"A"},"$version":"A"},"controlInputDefinitions":[],"controlOutputDefinitions":[],"valueInputDefinitions":[],"valueOutputDefinitions":[],"title":null,"summary":null,"pan":{"x":0.0,"y":0.0},"zoom":1.0,"elements":[{"defaultValues":{},"position":{"x":144.0,"y":-28.0},"guid":"ce28733c-25fd-43d2-9180-f275421c79d6","$version":"A","$type":"Bolt.TriggerStateTransition","$id":"270"},{"options":[1,2],"defaultValues":{},"position":{"x":-44.0,"y":-28.0},"guid":"3da86654-5aa4-4d80-99f4-960e096a3528","$version":"A","$type":"Bolt.SwitchOnInteger","$id":"272"},{"coroutine":false,"defaultValues":{},"position":{"x":-254.0,"y":-126.0},"guid":"683c4108-96f5-437c-af41-c617825c16fc","$version":"A","$type":"Bolt.OnEnterState","$id":"275"},{"member":{"name":"Level","parameterTypes":null,"targetType":"InGame.Global.Buff.BuffDamageButton","targetTypeName":"InGame.Global.Buff.BuffDamageButton","$version":"A"},"defaultValues":{"target":null},"position":{"x":-284.0,"y":2.0},"guid":"3d9175fe-2965-47c0-99b9-7400e0a5e7e5","$version":"A","$type":"Bolt.GetMember","$id":"277"},{"sourceUnit":{"$ref":"275"},"sourceKey":"trigger","destinationUnit":{"$ref":"272"},"destinationKey":"enter","guid":"8360c265-afe8-4fbb-b293-9a79e0c1c74c","$type":"Bolt.ControlConnection"},{"sourceUnit":{"$ref":"272"},"sourceKey":"%2","destinationUnit":{"$ref":"270"},"destinationKey":"trigger","guid":"8df06043-fa15-444e-879a-fd15e3c9d6ec","$type":"Bolt.ControlConnection"},{"sourceUnit":{"$ref":"277"},"sourceKey":"value","destinationUnit":{"$ref":"272"},"destinationKey":"selector","guid":"68a8a187-ea45-4dc1-a94b-d62ab8a3c33c","$type":"Bolt.ValueConnection"},{"position":{"xMin":-356.0,"yMin":-176.0,"xMax":357.0,"yMax":175.0},"label":"OnEnterState","comment":null,"color":{"r":0.0,"g":0.0,"b":0.0,"a":1.0},"guid":"0fa9b95b-5071-45a5-9406-a272c7aaf338","$version":"A","$type":"Ludiq.GraphGroup"}],"$version":"A"}},"source":{"$ref":"106"},"destination":{"$ref":"3"},"guid":"f5777384-298c-40dc-84d8-2eebaa546922","$version":"A","$type":"Bolt.FlowStateTransition"},{"nest":{"source":"Embed","macro":null,"embed":{"variables":{"collection":{"$content":[],"$version":"A"},"$version":"A"},"controlInputDefinitions":[],"controlOutputDefinitions":[],"valueInputDefinitions":[],"valueOutputDefinitions":[],"title":null,"summary":null,"pan":{"x":0.0,"y":0.0},"zoom":1.0,"elements":[{"defaultValues":{},"position":{"x":100.0,"y":-50.0},"guid":"5891f37a-7aff-4f44-be43-07f9e8287fed","$version":"A","$type":"Bolt.TriggerStateTransition","$id":"294"},{"coroutine":false,"defaultValues":{},"position":{"x":-84.0,"y":-49.0},"guid":"ed59a20d-7be1-4620-8ca6-f5b78a05e077","$version":"A","$type":"Bolt.Start","$id":"296"},{"sourceUnit":{"$ref":"296"},"sourceKey":"trigger","destinationUnit":{"$ref":"294"},"destinationKey":"trigger","guid":"8946ace9-e231-4f3a-9477-3fd0680fb9bd","$type":"Bolt.ControlConnection"}],"$version":"A"}},"source":{"$ref":"116"},"destination":{"$ref":"106"},"guid":"d6268bd2-5170-4b36-b62d-f02f336ffc36","$version":"A","$type":"Bolt.FlowStateTransition"}],"$version":"A"}}'
    _objectReferences:
    - {fileID: 21300000, guid: 91928d39cf29e5a4aa425ba1c6662986, type: 3}
    - {fileID: 21300000, guid: abe7cfddfe681314aa97b8ac4135fe3a, type: 3}
