%YAML 1.1
%TAG !u! tag:unity3d.com,2011:
--- !u!1 &6049392601696117845
GameObject:
  m_ObjectHideFlags: 0
  m_CorrespondingSourceObject: {fileID: 0}
  m_PrefabInstance: {fileID: 0}
  m_PrefabAsset: {fileID: 0}
  serializedVersion: 6
  m_Component:
  - component: {fileID: 6049392601696117842}
  - component: {fileID: 6049392601696117843}
  - component: {fileID: 6049392601696117841}
  - component: {fileID: 526301620245160228}
  m_Layer: 8
  m_Name: DeadLine
  m_TagString: Line
  m_Icon: {fileID: 0}
  m_NavMeshLayer: 0
  m_StaticEditorFlags: 0
  m_IsActive: 1
--- !u!4 &6049392601696117842
Transform:
  m_ObjectHideFlags: 0
  m_CorrespondingSourceObject: {fileID: 0}
  m_PrefabInstance: {fileID: 0}
  m_PrefabAsset: {fileID: 0}
  m_GameObject: {fileID: 6049392601696117845}
  m_LocalRotation: {x: -0, y: -0, z: -0, w: 1}
  m_LocalPosition: {x: -1.8, y: -0.40000004, z: 0}
  m_LocalScale: {x: 1, y: 1, z: 1}
  m_Children: []
  m_Father: {fileID: 0}
  m_RootOrder: 0
  m_LocalEulerAnglesHint: {x: 0, y: 0, z: 0}
--- !u!212 &6049392601696117843
SpriteRenderer:
  m_ObjectHideFlags: 0
  m_CorrespondingSourceObject: {fileID: 0}
  m_PrefabInstance: {fileID: 0}
  m_PrefabAsset: {fileID: 0}
  m_GameObject: {fileID: 6049392601696117845}
  m_Enabled: 1
  m_CastShadows: 0
  m_ReceiveShadows: 0
  m_DynamicOccludee: 1
  m_MotionVectors: 1
  m_LightProbeUsage: 1
  m_ReflectionProbeUsage: 1
  m_RayTracingMode: 0
  m_RayTraceProcedural: 0
  m_RenderingLayerMask: 1
  m_RendererPriority: 0
  m_Materials:
  - {fileID: 10754, guid: 0000000000000000f000000000000000, type: 0}
  m_StaticBatchInfo:
    firstSubMesh: 0
    subMeshCount: 0
  m_StaticBatchRoot: {fileID: 0}
  m_ProbeAnchor: {fileID: 0}
  m_LightProbeVolumeOverride: {fileID: 0}
  m_ScaleInLightmap: 1
  m_ReceiveGI: 1
  m_PreserveUVs: 0
  m_IgnoreNormalsForChartDetection: 0
  m_ImportantGI: 0
  m_StitchLightmapSeams: 1
  m_SelectedEditorRenderState: 0
  m_MinimumChartSize: 4
  m_AutoUVMaxDistance: 0.5
  m_AutoUVMaxAngle: 89
  m_LightmapParameters: {fileID: 0}
  m_SortingLayerID: -420481135
  m_SortingLayer: 1
  m_SortingOrder: 2
  m_Sprite: {fileID: 21300000, guid: 75995fd55684b7146931354f242405f6, type: 3}
  m_Color: {r: 1, g: 1, b: 1, a: 1}
  m_FlipX: 0
  m_FlipY: 0
  m_DrawMode: 0
  m_Size: {x: 0.62, y: 3.45}
  m_AdaptiveModeThreshold: 0.5
  m_SpriteTileMode: 0
  m_WasSpriteAssigned: 1
  m_MaskInteraction: 0
  m_SpriteSortPoint: 0
--- !u!114 &6049392601696117841
MonoBehaviour:
  m_ObjectHideFlags: 0
  m_CorrespondingSourceObject: {fileID: 0}
  m_PrefabInstance: {fileID: 0}
  m_PrefabAsset: {fileID: 0}
  m_GameObject: {fileID: 6049392601696117845}
  m_Enabled: 1
  m_EditorHideFlags: 0
  m_Script: {fileID: 11500000, guid: 720446ebe2508c74e8d32b6877c382f1, type: 3}
  m_Name: 
  m_EditorClassIdentifier: 
--- !u!60 &526301620245160228
PolygonCollider2D:
  m_ObjectHideFlags: 0
  m_CorrespondingSourceObject: {fileID: 0}
  m_PrefabInstance: {fileID: 0}
  m_PrefabAsset: {fileID: 0}
  m_GameObject: {fileID: 6049392601696117845}
  m_Enabled: 1
  m_Density: 1
  m_Material: {fileID: 0}
  m_IsTrigger: 1
  m_UsedByEffector: 0
  m_UsedByComposite: 0
  m_Offset: {x: 0, y: 0}
  m_SpriteTilingProperty:
    border: {x: 0, y: 0, z: 0, w: 0}
    pivot: {x: 0.5, y: 0.5}
    oldSize: {x: 1.18, y: 2.81}
    newSize: {x: 0.62, y: 3.45}
    adaptiveTilingThreshold: 0.5
    drawMode: 0
    adaptiveTiling: 0
  m_AutoTiling: 0
  m_Points:
    m_Paths:
    - - {x: -0.26999998, y: -1.135}
      - {x: -0.22, y: -0.98499995}
      - {x: -0.17999999, y: -0.85499996}
      - {x: -0.14999999, y: -0.78499997}
      - {x: -0.11, y: -0.66499996}
      - {x: -0.07, y: -0.555}
      - {x: -0.04, y: -0.435}
      - {x: -0.02, y: -0.405}
      - {x: 0.03, y: -0.255}
      - {x: 0.07, y: -0.125}
      - {x: 0.099999994, y: -0.065}
      - {x: 0.14, y: 0.065}
      - {x: 0.17, y: 0.16499999}
      - {x: 0.19999999, y: 0.225}
      - {x: 0.22, y: 0.295}
      - {x: 0.26, y: 0.415}
      - {x: 0.29, y: 0.515}
      - {x: 0.32999998, y: 0.575}
      - {x: 0.39, y: 0.805}
      - {x: 0.42, y: 0.865}
      - {x: 0.44, y: 0.935}
      - {x: 0.48999998, y: 1.095}
      - {x: 0.52, y: 1.165}
      - {x: 0.53999996, y: 1.225}
      - {x: 0.59, y: 1.385}
      - {x: 0.59, y: 1.405}
      - {x: 0.38, y: 1.405}
      - {x: 0.32, y: 1.245}
      - {x: 0.29, y: 1.125}
      - {x: 0.26999998, y: 1.105}
      - {x: 0.22999999, y: 0.97499996}
      - {x: 0.19999999, y: 0.865}
      - {x: 0.17999999, y: 0.835}
      - {x: 0.14999999, y: 0.745}
      - {x: 0.11, y: 0.635}
      - {x: 0.08, y: 0.545}
      - {x: 0.04, y: 0.435}
      - {x: 0.01, y: 0.345}
      - {x: -0.03, y: 0.235}
      - {x: -0.089999996, y: 0.044999998}
      - {x: -0.11, y: 0.005}
      - {x: -0.16, y: -0.105}
      - {x: -0.19, y: -0.24499999}
      - {x: -0.21, y: -0.285}
      - {x: -0.26, y: -0.415}
      - {x: -0.29, y: -0.515}
      - {x: -0.31, y: -0.575}
      - {x: -0.35, y: -0.685}
      - {x: -0.38, y: -0.775}
      - {x: -0.42, y: -0.885}
      - {x: -0.45, y: -0.97499996}
      - {x: -0.48999998, y: -1.0849999}
      - {x: -0.55, y: -1.255}
      - {x: -0.59, y: -1.375}
      - {x: -0.59, y: -1.405}
      - {x: -0.37, y: -1.405}
      - {x: -0.35999998, y: -1.395}
      - {x: -0.32999998, y: -1.305}
      - {x: -0.29999998, y: -1.1949999}
