%YAML 1.1
%TAG !u! tag:unity3d.com,2011:
--- !u!1 &1719361380748080036
GameObject:
  m_ObjectHideFlags: 0
  m_CorrespondingSourceObject: {fileID: 0}
  m_PrefabInstance: {fileID: 0}
  m_PrefabAsset: {fileID: 0}
  serializedVersion: 6
  m_Component:
  - component: {fileID: 3102363466439952306}
  m_Layer: 9
  m_Name: 32211
  m_TagString: Enemy
  m_Icon: {fileID: 0}
  m_NavMeshLayer: 0
  m_StaticEditorFlags: 0
  m_IsActive: 1
--- !u!4 &3102363466439952306
Transform:
  m_ObjectHideFlags: 0
  m_CorrespondingSourceObject: {fileID: 0}
  m_PrefabInstance: {fileID: 0}
  m_PrefabAsset: {fileID: 0}
  m_GameObject: {fileID: 1719361380748080036}
  m_LocalRotation: {x: 0, y: 0, z: 0, w: 1}
  m_LocalPosition: {x: 0, y: 0, z: 0}
  m_LocalScale: {x: 0.95, y: 0.95, z: 1}
  m_Children:
  - {fileID: 8518299646756222945}
  m_Father: {fileID: 0}
  m_RootOrder: 0
  m_LocalEulerAnglesHint: {x: 0, y: 0, z: 10}
--- !u!1001 &5162119807004884663
PrefabInstance:
  m_ObjectHideFlags: 0
  serializedVersion: 2
  m_Modification:
    m_TransformParent: {fileID: 3102363466439952306}
    m_Modifications:
    - target: {fileID: 150921634339495544, guid: 0bab1f8e59b0acc4c97a72cef94122b9,
        type: 3}
      propertyPath: m_Size.x
      value: 1.8
      objectReference: {fileID: 0}
    - target: {fileID: 150921634339495544, guid: 0bab1f8e59b0acc4c97a72cef94122b9,
        type: 3}
      propertyPath: m_Size.y
      value: 3.09
      objectReference: {fileID: 0}
    - target: {fileID: 698200144821873429, guid: 0bab1f8e59b0acc4c97a72cef94122b9,
        type: 3}
      propertyPath: m_LocalPosition.x
      value: -0.21
      objectReference: {fileID: 0}
    - target: {fileID: 698200144821873429, guid: 0bab1f8e59b0acc4c97a72cef94122b9,
        type: 3}
      propertyPath: m_LocalPosition.y
      value: 0.38
      objectReference: {fileID: 0}
    - target: {fileID: 1476236317608092756, guid: 0bab1f8e59b0acc4c97a72cef94122b9,
        type: 3}
      propertyPath: m_Sprite
      value: 
      objectReference: {fileID: 21300000, guid: 3e8441c08552b1d42932e3a11281843c,
        type: 3}
    - target: {fileID: 3572652997130701141, guid: 0bab1f8e59b0acc4c97a72cef94122b9,
        type: 3}
      propertyPath: m_Name
      value: Elite
      objectReference: {fileID: 0}
    - target: {fileID: 3572652997130701142, guid: 0bab1f8e59b0acc4c97a72cef94122b9,
        type: 3}
      propertyPath: m_RootOrder
      value: 0
      objectReference: {fileID: 0}
    - target: {fileID: 3572652997130701142, guid: 0bab1f8e59b0acc4c97a72cef94122b9,
        type: 3}
      propertyPath: m_LocalPosition.x
      value: 0
      objectReference: {fileID: 0}
    - target: {fileID: 3572652997130701142, guid: 0bab1f8e59b0acc4c97a72cef94122b9,
        type: 3}
      propertyPath: m_LocalPosition.y
      value: -0.1
      objectReference: {fileID: 0}
    - target: {fileID: 3572652997130701142, guid: 0bab1f8e59b0acc4c97a72cef94122b9,
        type: 3}
      propertyPath: m_LocalPosition.z
      value: 0
      objectReference: {fileID: 0}
    - target: {fileID: 3572652997130701142, guid: 0bab1f8e59b0acc4c97a72cef94122b9,
        type: 3}
      propertyPath: m_LocalRotation.w
      value: 1
      objectReference: {fileID: 0}
    - target: {fileID: 3572652997130701142, guid: 0bab1f8e59b0acc4c97a72cef94122b9,
        type: 3}
      propertyPath: m_LocalRotation.x
      value: -0
      objectReference: {fileID: 0}
    - target: {fileID: 3572652997130701142, guid: 0bab1f8e59b0acc4c97a72cef94122b9,
        type: 3}
      propertyPath: m_LocalRotation.y
      value: -0
      objectReference: {fileID: 0}
    - target: {fileID: 3572652997130701142, guid: 0bab1f8e59b0acc4c97a72cef94122b9,
        type: 3}
      propertyPath: m_LocalRotation.z
      value: -0
      objectReference: {fileID: 0}
    - target: {fileID: 3572652997130701142, guid: 0bab1f8e59b0acc4c97a72cef94122b9,
        type: 3}
      propertyPath: m_LocalEulerAnglesHint.x
      value: 0
      objectReference: {fileID: 0}
    - target: {fileID: 3572652997130701142, guid: 0bab1f8e59b0acc4c97a72cef94122b9,
        type: 3}
      propertyPath: m_LocalEulerAnglesHint.y
      value: 0
      objectReference: {fileID: 0}
    - target: {fileID: 3572652997130701142, guid: 0bab1f8e59b0acc4c97a72cef94122b9,
        type: 3}
      propertyPath: m_LocalEulerAnglesHint.z
      value: 10
      objectReference: {fileID: 0}
    - target: {fileID: 5228062226011897038, guid: 0bab1f8e59b0acc4c97a72cef94122b9,
        type: 3}
      propertyPath: m_LocalPosition.x
      value: -0.1
      objectReference: {fileID: 0}
    - target: {fileID: 5228062226011897038, guid: 0bab1f8e59b0acc4c97a72cef94122b9,
        type: 3}
      propertyPath: m_LocalPosition.y
      value: 0.78
      objectReference: {fileID: 0}
    - target: {fileID: 6852559545510899865, guid: 0bab1f8e59b0acc4c97a72cef94122b9,
        type: 3}
      propertyPath: m_LocalPosition.y
      value: -1.6
      objectReference: {fileID: 0}
    - target: {fileID: 8132632664183959016, guid: 0bab1f8e59b0acc4c97a72cef94122b9,
        type: 3}
      propertyPath: m_LocalPosition.x
      value: -0.16
      objectReference: {fileID: 0}
    - target: {fileID: 8132632664183959016, guid: 0bab1f8e59b0acc4c97a72cef94122b9,
        type: 3}
      propertyPath: m_LocalPosition.y
      value: 0.37
      objectReference: {fileID: 0}
    - target: {fileID: 8315587505036503241, guid: 0bab1f8e59b0acc4c97a72cef94122b9,
        type: 3}
      propertyPath: m_LocalScale.x
      value: 1
      objectReference: {fileID: 0}
    m_RemovedComponents: []
  m_SourcePrefab: {fileID: 100100000, guid: 0bab1f8e59b0acc4c97a72cef94122b9, type: 3}
--- !u!4 &8518299646756222945 stripped
Transform:
  m_CorrespondingSourceObject: {fileID: 3572652997130701142, guid: 0bab1f8e59b0acc4c97a72cef94122b9,
    type: 3}
  m_PrefabInstance: {fileID: 5162119807004884663}
  m_PrefabAsset: {fileID: 0}
