%YAML 1.1
%TAG !u! tag:unity3d.com,2011:
--- !u!114 &11400000
MonoBehaviour:
  m_ObjectHideFlags: 0
  m_CorrespondingSourceObject: {fileID: 0}
  m_PrefabInstance: {fileID: 0}
  m_PrefabAsset: {fileID: 0}
  m_GameObject: {fileID: 0}
  m_Enabled: 1
  m_EditorHideFlags: 0
  m_Script: {fileID: 11500000, guid: 17215f689fb19554ab6b81c2308113df, type: 3}
  m_Name: UIPopupLink_Ingame Update Popup
  m_EditorClassIdentifier: 
  PopupName: Ingame Update Popup
  Prefab: {fileID: 5830386293262728534, guid: abef5e5b2588948e6b0ff87de7a93249, type: 3}
