%YAML 1.1
%TAG !u! tag:unity3d.com,2011:
--- !u!114 &11400000
MonoBehaviour:
  m_ObjectHideFlags: 0
  m_CorrespondingSourceObject: {fileID: 0}
  m_PrefabInstance: {fileID: 0}
  m_PrefabAsset: {fileID: 0}
  m_GameObject: {fileID: 0}
  m_Enabled: 1
  m_EditorHideFlags: 0
  m_Script: {fileID: 11500000, guid: 17215f689fb19554ab6b81c2308113df, type: 3}
  m_Name: UIPopupLink_Mystery Chance
  m_EditorClassIdentifier: 
  PopupName: Mystery Chance
  Prefab: {fileID: 7989204834810729282, guid: 21df03140b6cd88499cb0045383d4232, type: 3}
